<?xml version="1.0" standalone="no"?>
<!DOCTYPE svg PUBLIC "-//W3C//DTD SVG 1.1//EN" "http://www.w3.org/Graphics/SVG/1.1/DTD/svg11.dtd" >
<svg xmlns="http://www.w3.org/2000/svg" xmlns:xlink="http://www.w3.org/1999/xlink" version="1.1">
<metadata>
Created by FontForge 20150824 at Sun May 15 15:32:46 2016
 By Everything Fonts
Copyrighted (c) 1981, 1997 by and the property of Linotype-Hell AG and/or its subsidiaries. All Rights Reserved. All Cyrillic characters designed by DoubleAlex. Helvetica is a registered Trademark of Linotype-Hell AG and/or its subsidiaries.
</metadata>
<defs>
<font id="HelveticaNeueCyrRoman" horiz-adv-x="556" >
  <font-face 
    font-family="HelveticaNeueCyrRoman"
    font-weight="400"
    font-stretch="normal"
    units-per-em="1000"
    panose-1="2 0 5 3 4 0 0 2 0 4"
    ascent="800"
    descent="-200"
    x-height="516"
    cap-height="712"
    bbox="-29 -214 1068 899"
    underline-thickness="50"
    underline-position="-150"
    unicode-range="U+0020-E001"
  />
<missing-glyph horiz-adv-x="1000" 
 />
    <glyph glyph-name=".notdef" horiz-adv-x="1000" 
 />
    <glyph glyph-name=".null" horiz-adv-x="0" 
 />
    <glyph glyph-name="nonmarkingreturn" horiz-adv-x="333" 
 />
    <glyph glyph-name="space" unicode=" " horiz-adv-x="278" 
 />
    <glyph glyph-name="exclam" unicode="!" horiz-adv-x="259" 
d="M177 712v-218l-25 -317h-46l-23 317v218h94zM182 101v-101h-105v101h105z" />
    <glyph glyph-name="quotedbl" unicode="&#x22;" horiz-adv-x="426" 
d="M159 418h-46l-10 278h65zM314 418h-47l-9 278h65z" />
    <glyph glyph-name="numbersign" unicode="#" 
d="M147 0h-65l40 211h-108v56h118l32 164h-108l-1 55h119l40 210h65l-40 -210h130l41 210h64l-40 -210h108v-55h-118l-32 -164h108l1 -56h-119l-40 -211h-64l39 211h-130zM328 267l31 164h-131l-31 -164h131z" />
    <glyph glyph-name="dollar" unicode="$" 
d="M298 788v-69q201 -3 204 -192h-84v6q0 107 -120 116v-248q45 -13 68.5 -21t58 -25t51.5 -36.5t30 -51.5t13 -74q0 -92 -58 -147t-163 -62v-83h-47v83q-101 5 -160.5 60.5t-59.5 158.5v10h85q-1 -6 -1 -13q0 -133 136 -145v275q-98 19 -152 63.5t-54 128.5q0 89 57 138.5
t149 58.5v69h47zM251 410v237q-57 -5 -90 -36.5t-33 -81.5q0 -52 33 -79t90 -40zM298 319v-265q60 2 98 40t38 97q0 99 -136 128z" />
    <glyph glyph-name="percent" unicode="%" horiz-adv-x="1000" 
d="M727 731l-399 -765h-68l401 765h66zM258 711q76 0 116.5 -49t40.5 -142q0 -102 -41 -156t-120 -54q-161 0 -161 202q0 95 43 147t122 52zM254 653q-86 0 -86 -146q0 -140 86 -140t86 149q0 137 -86 137zM756 386q76 0 116.5 -49t40.5 -142q0 -102 -41 -156t-120 -54
q-161 0 -161 202q0 95 43 147t122 52zM752 328q-86 0 -86 -146q0 -140 86 -140t86 149q0 137 -86 137z" />
    <glyph glyph-name="ampersand" unicode="&#x26;" horiz-adv-x="630" 
d="M555 337q-5 -101 -49 -176l138 -161h-110l-76 90q-74 -105 -208 -105q-92 0 -154.5 54.5t-62.5 146.5q0 70 48 126.5t119 87.5q-77 94 -77 165q0 67 46.5 109t119.5 42q72 0 117.5 -41.5t45.5 -106.5q0 -116 -131 -185l130 -159q20 49 23 113h81zM276 438q94 56 94 123
q0 37 -23.5 61t-58.5 24t-59 -22.5t-24 -55.5q0 -7 1.5 -15t4.5 -16t6 -14.5t9 -16t9 -14.5t10.5 -15.5t10 -13.5t11 -13.5t9.5 -11.5zM246 345q-124 -63 -124 -155q0 -55 40 -93.5t97 -38.5q94 0 151 89z" />
    <glyph glyph-name="quotesingle" unicode="'" horiz-adv-x="278" 
d="M162 418h-46l-10 278h65z" />
    <glyph glyph-name="parenleft" unicode="(" horiz-adv-x="259" 
d="M269 725q-133 -205 -133 -461q0 -244 133 -454h-65q-81 126 -118.5 227.5t-37.5 225.5q0 253 156 462h65z" />
    <glyph glyph-name="parenright" unicode=")" horiz-adv-x="259" 
d="M209 263q0 -124 -37.5 -225.5t-118.5 -227.5h-65q133 210 133 454q0 256 -133 461h65q156 -209 156 -462z" />
    <glyph glyph-name="asterisk" unicode="*" horiz-adv-x="352" 
d="M328 601l-109 -38l66 -90l-41 -30l-69 94l-66 -94l-44 30l65 90l-106 38l17 49l107 -40v113h54v-113l106 40z" />
    <glyph glyph-name="plus" unicode="+" horiz-adv-x="600" 
d="M267 0v221h-218v59h218v221h66v-221h218v-59h-218v-221h-66z" />
    <glyph glyph-name="comma" unicode="," horiz-adv-x="278" 
d="M194 111v-68q0 -38 -3.5 -64.5t-14.5 -53.5t-34 -45.5t-59 -27.5v50q54 18 55 98h-55v111h111z" />
    <glyph glyph-name="hyphen" unicode="-" horiz-adv-x="389" 
d="M340 320v-84h-291v84h291z" />
    <glyph glyph-name="period" unicode="." horiz-adv-x="278" 
d="M194 111v-111h-111v111h111z" />
    <glyph glyph-name="slash" unicode="/" horiz-adv-x="333" 
d="M351 729l-297 -746h-72l299 746h70z" />
    <glyph glyph-name="zero" unicode="0" 
d="M277 709q64 0 109.5 -23.5t69.5 -57.5t38 -88.5t17 -98t3 -104.5q0 -56 -4.5 -101t-19 -94t-39.5 -81.5t-68 -53.5t-102 -21q-62 0 -107.5 21.5t-70.5 53.5t-39.5 81.5t-18.5 94t-4 102.5q0 50 2.5 87t10 83.5t23.5 79t41 61.5t65.5 44t93.5 15zM277 633q-31 0 -55 -11.5
t-39 -26.5t-26 -44.5t-15.5 -49.5t-7.5 -57.5t-3 -53v-51.5q0 -35 1 -58t5 -60t14 -61.5t25 -49t41.5 -37t61.5 -12.5q30 0 53.5 11t38.5 26t25.5 42.5t15.5 48t7.5 55t3 51t0.5 48.5v50t-3 52t-7.5 57t-15.5 49t-26 44t-39 26.5t-55 11.5z" />
    <glyph glyph-name="one" unicode="1" 
d="M358 708v-708h-93v513h-178v64q86 0 136.5 28t67.5 103h67z" />
    <glyph glyph-name="two" unicode="2" 
d="M487 77v-77h-462q3 59 18 103t46.5 79.5t61.5 58.5t85 57q86 54 113 81q56 55 56 122q0 59 -38 96.5t-99 37.5q-73 0 -104.5 -50.5t-33.5 -127.5h-86v19q0 105 62.5 169t165.5 64q101 0 161 -56t60 -150q0 -40 -13.5 -75.5t-30 -59.5t-50 -51t-55.5 -41.5t-63 -39.5
q-82 -49 -109 -76q-38 -38 -49 -83h364z" />
    <glyph glyph-name="three" unicode="3" 
d="M46 479q3 110 61.5 170t163.5 60q94 0 151 -51t57 -134q0 -50 -25.5 -89.5t-71.5 -58.5q60 -14 95 -60t35 -111q1 -98 -67.5 -158.5t-177.5 -60.5q-108 0 -172.5 59.5t-64.5 160.5v13h84q3 -76 43 -117t111 -41q68 0 110.5 38.5t42.5 99.5q0 62 -42.5 99t-114.5 37
q-18 0 -46 -4v72q14 -1 29 -1q66 0 104.5 31.5t38.5 85.5q0 52 -33.5 84t-89.5 32q-64 0 -100 -40.5t-38 -115.5h-83z" />
    <glyph glyph-name="four" unicode="4" 
d="M515 243v-72h-96v-171h-80v171h-311v80l322 458h69v-466h96zM339 243v341l-236 -341h236z" />
    <glyph glyph-name="five" unicode="5" 
d="M471 696v-75h-287l-42 -211q52 56 143 56q100 0 162 -64.5t62 -167.5q0 -108 -68 -178t-177 -70q-101 0 -163.5 56t-65.5 149h86q5 -59 45 -96t99 -37q66 0 110 48t44 119q0 74 -43 120.5t-112 46.5q-88 0 -136 -69l-73 5l66 368h350z" />
    <glyph glyph-name="six" unicode="6" 
d="M500 525h-87q-7 51 -37.5 80.5t-82.5 29.5q-36 0 -64.5 -13t-46 -37.5t-29.5 -49.5t-18 -61t-8 -58.5t-4 -54.5q58 93 176 93q99 0 159.5 -62.5t60.5 -164.5q0 -105 -63.5 -173t-169.5 -68q-247 0 -247 352q0 55 6.5 104t24 99.5t45.5 86.5t74.5 58.5t106.5 22.5
q89 0 143 -48.5t61 -135.5zM284 380q-65 0 -105 -43.5t-40 -113.5q0 -73 40.5 -117t106.5 -44q64 0 103.5 42.5t39.5 114.5q0 74 -39 117.5t-106 43.5z" />
    <glyph glyph-name="seven" unicode="7" 
d="M504 696v-73q-232 -265 -271 -623h-94q12 164 86.5 325t191.5 290h-371v81h458z" />
    <glyph glyph-name="eight" unicode="8" 
d="M165 379q-47 20 -72.5 58.5t-25.5 90.5q0 80 59 130.5t152 50.5q92 0 150.5 -49.5t58.5 -127.5q0 -108 -97 -153q125 -44 125 -173q0 -101 -65 -160.5t-175 -59.5q-106 0 -170.5 58.5t-64.5 155.5q0 64 32.5 110.5t92.5 68.5zM278 633q-56 0 -90 -30.5t-34 -80.5
t34 -80.5t90 -30.5q55 0 88.5 30.5t33.5 80.5q0 51 -33 81t-89 30zM275 342q-64 0 -105 -39.5t-41 -100.5q0 -63 41.5 -103.5t106.5 -40.5q66 0 107.5 40t41.5 103t-42 102t-109 39z" />
    <glyph glyph-name="nine" unicode="9" 
d="M50 171h84q7 -52 41.5 -81.5t88.5 -29.5q139 0 158 231q2 21 2 47q-60 -97 -173 -97q-97 0 -157 63.5t-60 166.5q0 106 65 172t169 66q244 0 244 -346q0 -53 -6.5 -101.5t-23.5 -100t-44 -89.5t-72.5 -62t-104.5 -24q-90 0 -147.5 49t-63.5 136zM264 633
q-63 0 -101.5 -43.5t-38.5 -115.5q0 -68 36.5 -112.5t103.5 -44.5q65 0 105 42.5t40 112.5q0 73 -40 117t-105 44z" />
    <glyph glyph-name="colon" unicode=":" horiz-adv-x="278" 
d="M194 111v-111h-111v111h111zM194 516v-111h-111v111h111z" />
    <glyph glyph-name="semicolon" unicode=";" horiz-adv-x="278" 
d="M194 111v-68q0 -38 -3.5 -64.5t-14.5 -53.5t-34 -45.5t-59 -27.5v50q54 18 55 98h-55v111h111zM194 516v-111h-111v111h111z" />
    <glyph glyph-name="less" unicode="&#x3c;" horiz-adv-x="600" 
d="M49 223v65l502 200v-67l-423 -166l423 -164v-67z" />
    <glyph glyph-name="equal" unicode="=" horiz-adv-x="600" 
d="M49 324v60h502v-60h-502zM49 134v59h502v-59h-502z" />
    <glyph glyph-name="greater" unicode="&#x3e;" horiz-adv-x="600" 
d="M551 223l-502 -199v67l423 164l-423 166v67l502 -200v-65z" />
    <glyph glyph-name="question" unicode="?" 
d="M55 489q0 104 57.5 170t167.5 66q96 0 153.5 -52t57.5 -140q0 -53 -19 -91.5t-59 -75.5q-5 -5 -25.5 -23.5t-23.5 -22.5t-16.5 -19t-15.5 -23.5t-8 -25.5t-7 -35.5t-1 -43.5h-82v6q0 45 4.5 74t21 56.5t31 43.5t53.5 55q32 32 44.5 57.5t12.5 57.5q0 58 -33 92t-89 34
q-131 0 -140 -160h-84zM326 101v-101h-105v101h105z" />
    <glyph glyph-name="at" unicode="@" horiz-adv-x="800" 
d="M701 119l21 -29q-77 -57 -148 -82t-156 -25q-163 0 -275 100t-112 262q0 163 116 273.5t288 110.5q147 0 240.5 -83t93.5 -215q0 -106 -61 -184.5t-142 -78.5q-35 0 -56.5 20t-21.5 51q0 13 5 33q-51 -104 -143 -104q-60 0 -97 41.5t-37 108.5q0 98 59.5 170.5
t138.5 72.5q99 0 120 -90l21 75h58l-59 -199q-20 -69 -20 -94q0 -20 12.5 -31.5t34.5 -11.5q57 0 102.5 68.5t45.5 154.5q0 115 -82 186t-213 71q-155 0 -259 -99t-104 -247q0 -145 101 -233.5t248 -88.5q79 0 144.5 24t136.5 73zM507 430q0 40 -22 65t-59 25
q-61 0 -101.5 -68.5t-40.5 -134.5q0 -49 22 -78t60 -29q62 0 101.5 76t39.5 144z" />
    <glyph glyph-name="A" unicode="A" horiz-adv-x="648" 
d="M378 712l278 -712h-105l-79 218h-299l-81 -218h-100l280 712h106zM444 293l-121 329l-123 -329h244z" />
    <glyph glyph-name="B" unicode="B" horiz-adv-x="685" 
d="M79 712h304q98 0 162.5 -43t64.5 -135q0 -53 -28.5 -94.5t-76.5 -58.5q66 -15 101.5 -62t35.5 -118q0 -201 -270 -201h-293v712zM171 632v-225h169q29 0 49.5 1.5t46.5 7.5t41.5 17.5t27 33.5t11.5 53t-10 52.5t-24 33t-38.5 17.5t-44 7.5t-50.5 1.5h-178zM171 333v-254
h188q35 0 57 1.5t49.5 8.5t43.5 20.5t27 39t11 61.5q0 30 -7.5 52t-25 35t-33 21t-44.5 11t-45 3.5t-49 0.5h-172z" />
    <glyph glyph-name="C" unicode="C" horiz-adv-x="722" 
d="M682 269q-12 -135 -93.5 -210.5t-214.5 -75.5q-152 0 -241 100.5t-89 271.5q0 160 89.5 266.5t247.5 106.5q113 0 199 -61t96 -169h-94q-16 70 -70 109.5t-133 39.5q-119 0 -179.5 -84t-60.5 -207q0 -136 64 -214t175 -78q91 0 145 52.5t65 152.5h94z" />
    <glyph glyph-name="D" unicode="D" horiz-adv-x="704" 
d="M79 712h232q181 0 267 -84t86 -266q0 -179 -80 -270.5t-256 -91.5h-249v712zM173 631v-550h143q134 0 194.5 65.5t60.5 204.5q0 146 -59 213t-200 67h-139z" />
    <glyph glyph-name="E" unicode="E" horiz-adv-x="611" 
d="M572 712v-82h-399v-223h373v-79h-373v-246h404v-82h-498v712h493z" />
    <glyph glyph-name="F" unicode="F" horiz-adv-x="574" 
d="M548 712v-82h-374v-222h330v-79h-330v-329h-94v712h468z" />
    <glyph glyph-name="G" unicode="G" horiz-adv-x="759" 
d="M697 377v-377h-60l-24 89q-86 -106 -230 -106q-152 0 -245.5 101.5t-93.5 265.5q0 163 92.5 270t253.5 107q74 0 138 -25.5t109 -80t51 -128.5h-92q-11 70 -67.5 112.5t-138.5 42.5q-116 0 -184 -79.5t-68 -215.5q0 -134 68 -213t183 -79q108 0 164.5 65.5t59.5 173.5
h-228v77h312z" />
    <glyph glyph-name="H" unicode="H" horiz-adv-x="722" 
d="M643 712v-712h-94v333h-376v-333h-94v712h94v-297h376v297h94z" />
    <glyph glyph-name="I" unicode="I" horiz-adv-x="259" 
d="M177 712v-712h-94v712h94z" />
    <glyph glyph-name="J" unicode="J" horiz-adv-x="519" 
d="M443 712v-493q0 -54 -9.5 -94t-31.5 -73.5t-63 -51t-101 -17.5q-113 0 -163 56t-50 168q0 14 1 27h91v-25q0 -72 24.5 -110t95.5 -38q32 0 53.5 10t33 23.5t17.5 38.5t7 44t1 51v484h94z" />
    <glyph glyph-name="K" unicode="K" horiz-adv-x="667" 
d="M657 712l-300 -286l312 -426h-120l-258 362l-118 -112v-250h-94v712h94v-353l361 353h123z" />
    <glyph glyph-name="L" unicode="L" 
d="M552 82v-82h-472v712h94v-630h378z" />
    <glyph glyph-name="M" unicode="M" horiz-adv-x="871" 
d="M80 712h130l229 -603l221 603h131v-712h-89v594l-223 -594h-82l-227 594v-594h-90v712z" />
    <glyph glyph-name="N" unicode="N" horiz-adv-x="722" 
d="M75 712h103l376 -578v578h91v-712h-106l-374 571v-571h-90v712z" />
    <glyph glyph-name="O" unicode="O" horiz-adv-x="760" 
d="M379 729q162 0 252 -101.5t90 -265.5q0 -165 -89 -272t-252 -107q-83 0 -149 30t-107.5 83t-63 121t-21.5 147q0 167 92.5 266t247.5 99zM379 647q-119 0 -182.5 -83.5t-63.5 -206.5q0 -134 67.5 -213.5t180.5 -79.5q112 0 179 80t67 213q0 132 -67.5 211t-180.5 79z" />
    <glyph glyph-name="P" unicode="P" horiz-adv-x="648" 
d="M83 712h293q109 0 173 -49.5t64 -155.5q0 -215 -243 -215h-193v-292h-94v712zM177 631v-260h181q76 0 118.5 28.5t42.5 101.5q0 41 -13.5 68t-39.5 40t-54 17.5t-67 4.5h-168z" />
    <glyph glyph-name="Q" unicode="Q" horiz-adv-x="760" 
d="M709 -2l-49 -59l-108 87q-74 -43 -174 -43q-160 0 -249.5 108t-89.5 273t93 264.5t248 99.5q158 0 249.5 -98.5t91.5 -270.5q0 -185 -106 -286zM451 204l94 -77q82 82 82 230q0 131 -67 210.5t-178 79.5q-119 0 -184 -82.5t-65 -204.5q0 -127 63.5 -212t187.5 -85
q57 0 97 20l-80 63z" />
    <glyph glyph-name="R" unicode="R" horiz-adv-x="685" 
d="M79 712h313q239 0 239 -197q0 -62 -33.5 -109.5t-88.5 -63.5q36 -8 58 -23t32 -42t13 -48t5 -62q0 -4 1 -19.5t1 -21t1.5 -19.5t2.5 -21t3 -19t5 -19.5t7 -17t9 -17t11 -13.5h-108q-7 10 -11.5 25t-6.5 35.5t-3 33t-2 36.5t-1 27q-5 91 -37.5 121t-128.5 30h-187v-308
h-94v712zM173 632v-249h177q33 0 55.5 2t49.5 9t43.5 20t27.5 37t11 58q0 72 -43.5 97.5t-118.5 25.5h-202z" />
    <glyph glyph-name="S" unicode="S" horiz-adv-x="648" 
d="M583 503h-91q-15 145 -177 145q-77 0 -119 -31t-42 -87q0 -20 6 -35t20.5 -26.5t27.5 -19.5t41 -16t45 -11.5t53 -11.5q44 -9 73 -16.5t69 -24.5t63.5 -37.5t41 -54.5t17.5 -77q0 -75 -42 -125.5t-102 -70.5t-133 -20q-134 0 -214.5 63.5t-80.5 187.5h91q3 -91 61 -132.5
t151 -41.5q73 0 125 30.5t52 99.5q0 32 -14 54.5t-44 37t-60 23.5t-79 20q-7 1 -10 2q-110 25 -144 40q-104 45 -104 155q0 102 75.5 152.5t182.5 50.5q117 0 187 -56t74 -167z" />
    <glyph glyph-name="T" unicode="T" horiz-adv-x="574" 
d="M573 712v-82h-239v-630h-94v630h-239v82h572z" />
    <glyph glyph-name="U" unicode="U" horiz-adv-x="722" 
d="M74 712h95v-449q0 -104 45 -152t147 -48q105 0 148.5 49t43.5 151v449h95v-424q0 -156 -65 -229.5t-222 -73.5q-152 0 -219.5 71.5t-67.5 221.5v434z" />
    <glyph glyph-name="V" unicode="V" horiz-adv-x="611" 
d="M-2 712h104l205 -620l207 620h99l-254 -712h-108z" />
    <glyph glyph-name="W" unicode="W" horiz-adv-x="926" 
d="M14 712h97l141 -595l161 595h103l159 -595l146 595h94l-190 -712h-99l-164 596l-166 -596h-99z" />
    <glyph glyph-name="X" unicode="X" horiz-adv-x="611" 
d="M595 712l-237 -345l250 -367h-114l-192 293l-199 -293h-108l251 367l-235 345h113l179 -274l185 274h107z" />
    <glyph glyph-name="Y" unicode="Y" horiz-adv-x="648" 
d="M648 712l-275 -421v-291h-93v291l-277 421h113l213 -339l211 339h108z" />
    <glyph glyph-name="Z" unicode="Z" horiz-adv-x="611" 
d="M574 712v-78l-444 -552h455v-82h-568v80l443 550h-408v82h522z" />
    <glyph glyph-name="bracketleft" unicode="[" horiz-adv-x="259" 
d="M261 723v-68h-108v-775h108v-68h-189v911h189z" />
    <glyph glyph-name="backslash" unicode="\" horiz-adv-x="333" 
d="M351 -17h-72l-297 746h70z" />
    <glyph glyph-name="bracketright" unicode="]" horiz-adv-x="259" 
d="M187 723v-911h-189v68h108v775h-108v68h189z" />
    <glyph glyph-name="asciicircum" unicode="^" horiz-adv-x="600" 
d="M99 281l170 415h62l170 -415h-69l-133 336l-131 -336h-69z" />
    <glyph glyph-name="underscore" unicode="_" horiz-adv-x="500" 
d="M0 -125v50h500v-50h-500z" />
    <glyph glyph-name="grave" unicode="`" horiz-adv-x="222" 
d="M86 732l86 -142h-64l-132 142h110z" />
    <glyph glyph-name="a" unicode="a" horiz-adv-x="537" 
d="M521 68v-66q-26 -10 -58 -10q-73 0 -75 76q-73 -82 -187 -82q-76 0 -120.5 39t-44.5 107q0 138 183 161q12 2 35 4q87 10 107 23q23 16 23 55q0 85 -117 85q-60 0 -91 -24.5t-37 -80.5h-83q2 83 59 129t157 46q109 0 162 -50q17 -16 25 -42t9 -42.5t1 -49.5
q0 -38 -2 -115t-2 -115q0 -28 7.5 -39.5t27.5 -11.5q8 0 21 3zM384 268q-9 -7 -19 -12t-25.5 -8t-21 -4.5t-26.5 -4t-22 -2.5q-31 -4 -40.5 -5.5t-36 -8.5t-37.5 -16t-21.5 -26.5t-10.5 -41.5q0 -40 27.5 -63t75.5 -23q61 0 109 36t48 85v94z" />
    <glyph glyph-name="b" unicode="b" horiz-adv-x="593" 
d="M148 712v-267q56 85 171 85q106 0 169.5 -73.5t63.5 -196.5q0 -125 -65 -200t-173 -75q-123 0 -171 90v-75h-80v712h85zM306 458q-82 0 -121.5 -59t-39.5 -145q0 -91 43.5 -144.5t117.5 -53.5q71 0 114.5 55.5t43.5 147.5q0 91 -43 145t-115 54z" />
    <glyph glyph-name="c" unicode="c" horiz-adv-x="537" 
d="M508 188q-11 -93 -70.5 -148t-154.5 -55q-117 0 -181 72.5t-64 193.5q0 129 67 204.5t181 75.5q95 0 152 -47.5t67 -135.5h-88q-23 112 -130 112q-74 0 -117 -54.5t-43 -147.5q0 -94 41 -148t113 -54q58 0 94.5 34t46.5 98h86z" />
    <glyph glyph-name="d" unicode="d" horiz-adv-x="593" 
d="M529 712v-712h-80v76q-49 -90 -170 -90q-110 0 -174.5 73.5t-64.5 199.5q0 117 60.5 194.5t174.5 77.5q111 0 169 -84v265h85zM286 458q-73 0 -115.5 -53t-42.5 -144q0 -94 43.5 -149.5t116.5 -55.5q74 0 116 53.5t42 148.5q0 85 -39.5 142.5t-120.5 57.5z" />
    <glyph glyph-name="e" unicode="e" horiz-adv-x="537" 
d="M505 163q-39 -180 -225 -180q-114 0 -178.5 71t-64.5 197q0 125 66.5 202.5t173.5 77.5q119 0 176.5 -80.5t57.5 -203.5v-12h-388l-1 -6q0 -82 43 -129t118 -47q56 0 88.5 26t50.5 84h83zM423 304q-6 74 -45 115.5t-103 41.5q-62 0 -103 -42t-49 -115h300z" />
    <glyph glyph-name="f" unicode="f" horiz-adv-x="296" 
d="M297 714v-74q-22 4 -47 4q-40 0 -52.5 -13t-12.5 -56v-59h99v-70h-99v-446h-86v446h-87v70h87v69q0 70 36 101.5t107 31.5q22 0 55 -4z" />
    <glyph glyph-name="g" unicode="g" horiz-adv-x="574" 
d="M511 516v-460q0 -67 -7 -103.5t-26 -68.5q-57 -94 -204 -94q-87 0 -147 35.5t-70 116.5h87q15 -86 133 -86q79 0 114.5 40t37.5 129l1 63q-49 -94 -164 -94q-104 0 -165.5 71t-61.5 191q0 113 61 193.5t170 80.5q54 0 96.5 -23t66.5 -66v75h78zM274 456
q-69 0 -108.5 -53.5t-39.5 -147.5q0 -85 41 -136.5t109 -51.5q71 0 111.5 54t40.5 148q0 88 -40.5 137.5t-113.5 49.5z" />
    <glyph glyph-name="h" unicode="h" 
d="M149 712v-269q57 86 169 86q174 0 174 -176v-353h-85v333q0 59 -24.5 90.5t-88.5 31.5q-78 0 -111.5 -50t-33.5 -143v-262h-85v712h85z" />
    <glyph glyph-name="i" unicode="i" horiz-adv-x="222" 
d="M154 712v-104h-86v104h86zM154 516v-516h-86v516h86z" />
    <glyph glyph-name="j" unicode="j" horiz-adv-x="222" 
d="M156 516v-573q0 -78 -27 -114.5t-105 -36.5q-16 0 -39 4v71q26 -2 29 -2q21 0 33 4t17 17t5.5 22.5t0.5 36.5v571h86zM156 712v-104h-86v104h86z" />
    <glyph glyph-name="k" unicode="k" horiz-adv-x="519" 
d="M498 516l-205 -187l220 -329h-108l-177 270l-81 -75v-195h-83v712h83v-421l237 225h114z" />
    <glyph glyph-name="l" unicode="l" horiz-adv-x="222" 
d="M154 712v-712h-86v712h86z" />
    <glyph glyph-name="m" unicode="m" horiz-adv-x="853" 
d="M144 516v-75q34 46 73 67t95 21q106 0 143 -89q67 90 171 90q80 0 121.5 -44.5t41.5 -124.5v-361h-85v325q0 64 -20 96.5t-83 32.5q-132 0 -132 -161v-293h-85v331q0 59 -19.5 90.5t-75.5 31.5q-79 0 -109.5 -48.5t-30.5 -131.5v-273h-85v516h80z" />
    <glyph glyph-name="n" unicode="n" 
d="M144 516v-80q64 94 176 94q91 0 131.5 -47.5t40.5 -139.5v-343h-85v304q0 38 -2.5 59.5t-12.5 46t-34 35.5t-62 11q-147 0 -147 -186v-270h-85v516h80z" />
    <glyph glyph-name="o" unicode="o" horiz-adv-x="574" 
d="M290 531q117 0 182 -71t65 -199q0 -131 -65 -204t-183 -73t-185 72t-67 200q0 127 68 201t185 74zM288 460q-75 0 -119 -55t-44 -147q0 -95 43.5 -148.5t121.5 -53.5q75 0 117.5 54t42.5 149q0 92 -43.5 146.5t-118.5 54.5z" />
    <glyph glyph-name="p" unicode="p" horiz-adv-x="593" 
d="M144 516v-73q56 89 174 89q108 0 171.5 -73t63.5 -198t-62.5 -199.5t-168.5 -74.5q-111 0 -173 85v-271h-85v715h80zM305 461q-74 0 -116.5 -53.5t-42.5 -147.5t43.5 -147.5t118.5 -53.5q73 0 115 54t42 147q0 94 -42.5 147.5t-117.5 53.5z" />
    <glyph glyph-name="q" unicode="q" horiz-adv-x="593" 
d="M529 516v-715h-85v272q-53 -86 -173 -86q-111 0 -170.5 77.5t-59.5 191.5q0 127 64 201.5t174 74.5q117 0 171 -89v73h79zM286 461q-71 0 -114 -55.5t-43 -148.5q0 -91 42.5 -145t115.5 -54q74 0 117 54.5t43 149.5q0 93 -43 146t-118 53z" />
    <glyph glyph-name="r" unicode="r" horiz-adv-x="333" 
d="M333 528v-88q-9 1 -22 1q-41 0 -71 -12.5t-47.5 -32.5t-28.5 -50t-14.5 -60t-3.5 -68v-218h-85v516h81v-111q51 123 191 123z" />
    <glyph glyph-name="s" unicode="s" horiz-adv-x="500" 
d="M447 366h-85q-8 94 -126 94q-49 0 -77 -19t-28 -51q0 -9 2 -17.5t7.5 -15t10 -11.5t15 -9.5t16 -7.5t20 -6.5t20.5 -5t23.5 -5.5t22.5 -5q37 -8 55.5 -13t51 -18.5t49.5 -28t30.5 -40t13.5 -57.5q0 -75 -58.5 -120.5t-155.5 -45.5q-105 0 -161.5 46t-60.5 133h84
q7 -109 140 -109q57 0 91.5 23.5t34.5 62.5q0 26 -18 43t-40 24.5t-63 17.5q-6 1 -9 2q-9 2 -38.5 8.5t-42.5 10.5t-37.5 12.5t-36.5 18t-26.5 24t-20.5 34t-6 44.5q0 70 53.5 111t143.5 41q91 0 148.5 -43t57.5 -122z" />
    <glyph glyph-name="t" unicode="t" horiz-adv-x="315" 
d="M285 516v-70h-103v-301q0 -25 0.5 -33t5.5 -21.5t17 -17.5t34 -4q19 0 46 3v-73q-36 -4 -65 -4q-36 0 -60 8t-36.5 18t-18.5 35.5t-7 43t-1 58.5v4.5v4.5v5v274h-87v70h87v153h85v-153h103z" />
    <glyph glyph-name="u" unicode="u" 
d="M492 516v-516h-79v81q-66 -95 -178 -95q-82 0 -127 45t-45 130v355h85v-332q0 -61 23.5 -92.5t84.5 -31.5q151 0 151 186v270h85z" />
    <glyph glyph-name="v" unicode="v" horiz-adv-x="500" 
d="M14 516h95l146 -433l142 433h89l-189 -516h-91z" />
    <glyph glyph-name="w" unicode="w" horiz-adv-x="758" 
d="M17 516h94l118 -425l105 425h93l109 -425l117 425h88l-165 -516h-90l-106 408l-105 -408h-92z" />
    <glyph glyph-name="x" unicode="x" horiz-adv-x="518" 
d="M488 516l-180 -238l201 -278h-109l-145 212l-143 -212h-103l194 272l-179 244h108l125 -177l128 177h103z" />
    <glyph glyph-name="y" unicode="y" horiz-adv-x="500" 
d="M491 516l-221 -582q-13 -35 -22.5 -54.5t-27 -43t-42 -34t-57.5 -10.5q-25 0 -63 9v76q37 -11 55 -11q42 0 60 43l40 94l-205 513h96l153 -411l145 411h89z" />
    <glyph glyph-name="z" unicode="z" horiz-adv-x="480" 
d="M445 516v-56l-314 -388h327v-72h-436v65l308 381h-288v70h403z" />
    <glyph glyph-name="braceleft" unicode="{" horiz-adv-x="333" 
d="M2 288q77 9 98 40t21 110v48q0 119 45 174t165 63v-52q-73 -7 -101 -39t-28 -104v-64q0 -43 -3.5 -71t-15.5 -57t-38.5 -46t-68.5 -23q35 -5 59 -18t37 -29t20 -43.5t8.5 -49t1.5 -57.5v-52q0 -80 26.5 -115t102.5 -39v-52q-116 7 -163 60t-47 167v58q0 81 -22.5 111.5
t-96.5 37.5v42z" />
    <glyph glyph-name="bar" unicode="|" horiz-adv-x="222" 
d="M78 -214v1000h66v-1000h-66z" />
    <glyph glyph-name="braceright" unicode="}" horiz-adv-x="333" 
d="M331 246q-74 -7 -96.5 -37.5t-22.5 -111.5v-58q0 -114 -47 -167t-163 -60v52q76 4 102.5 39t26.5 115v52q0 36 1.5 57.5t8.5 49t20 43.5t37 29t59 18q-42 6 -68.5 23t-38.5 46t-15.5 57t-3.5 71v64q0 72 -28 104t-101 39v52q120 -8 165 -63t45 -174v-48q0 -79 21 -110
t98 -40v-42z" />
    <glyph glyph-name="asciitilde" unicode="~" horiz-adv-x="600" 
d="M562 330q-7 -66 -39.5 -101.5t-86.5 -35.5q-33 0 -138 35q-13 4 -35.5 11.5l-33 11t-25 8t-24.5 6t-19 1.5q-30 0 -51.5 -22.5t-26.5 -57.5h-45q5 59 36.5 99t88.5 40q16 0 38 -4.5t36 -9t41 -13.5t35 -12l28.5 -9.5t35.5 -12t32 -8.5t32 -4q32 0 52.5 22.5t25.5 55.5h43
z" />
    <glyph glyph-name="sterling" unicode="&#xa3;" 
d="M523 484h-87q-4 73 -40 116.5t-108 43.5q-61 0 -101 -36.5t-40 -92.5q0 -20 5.5 -40.5t11 -32.5t18.5 -36t18 -33h159v-43h-137q19 -42 19 -79q0 -27 -6 -50t-21 -43t-25 -32t-32.5 -32.5t-29.5 -27.5q64 31 112 31q38 0 82 -14q64 -19 83 -19q55 0 97 36l42 -66
q-24 -24 -64 -37.5t-77 -13.5q-12 0 -22.5 1t-24 5t-18.5 5.5t-23.5 8t-21.5 7.5q-57 19 -95 19q-30 0 -52 -9.5t-52 -30.5l-46 71q48 32 78.5 77t30.5 96q0 47 -26 97h-83v43h58q-46 77 -46 141q0 91 64 148.5t166 57.5q106 0 170 -61.5t64 -164.5v-10z" />
    <glyph glyph-name="currency" unicode="&#xa4;" 
d="M46 164l64 64q-43 55 -43 128q0 76 43 128l-64 64l40 40l64 -64q55 43 129 43q65 0 127 -43l64 64l40 -40l-64 -64q43 -50 43 -128q0 -68 -43 -127l64 -65l-40 -40l-65 64q-18 -18 -55 -30.5t-72 -12.5q-70 0 -127 43l-65 -64zM278 506q-62 0 -106 -44t-44 -106
t44 -106.5t106 -44.5t106.5 44.5t44.5 106.5t-44.5 106t-106.5 44z" />
    <glyph glyph-name="brokenbar" unicode="&#xa6;" horiz-adv-x="222" 
d="M78 -89v250h66v-250h-66zM78 411v250h66v-250h-66z" />
    <glyph glyph-name="section" unicode="&#xa7;" 
d="M464 545h-84q-9 106 -103 106q-42 0 -68.5 -22t-26.5 -58q0 -10 2 -19t7 -17.5t9.5 -15.5t15.5 -15.5t18.5 -14t24 -15.5t26.5 -16t32 -18.5t36 -20.5q86 -49 115 -78q48 -48 48 -110q0 -101 -104 -149q56 -47 56 -111q0 -73 -51.5 -118.5t-134.5 -45.5q-89 0 -141.5 49
t-56.5 135h85q9 -113 116 -113q43 0 70 23.5t27 60.5q0 14 -5.5 27.5t-18 26.5t-23 23t-30.5 22.5t-29 18t-30 17t-23 12.5q-6 4 -32 18t-34 19t-29.5 19.5t-30 23t-23.5 24.5t-21 30t-11 33.5t-5 40.5q0 52 29 92.5t77 52.5q-46 47 -46 103q0 70 50.5 113.5t132.5 43.5
q86 0 135 -47t49 -130zM189 419q-72 -33 -72 -94q0 -9 2 -17t4 -14.5t7.5 -14t8.5 -12t11.5 -11.5t12 -10t14 -9.5t13 -8.5t14 -8.5t13.5 -7.5q113 -67 145 -88q34 13 53 38t19 54q0 21 -8 37.5t-28.5 33.5t-28.5 22t-36 22q-132 78 -144 88z" />
    <glyph glyph-name="copyright" unicode="&#xa9;" horiz-adv-x="800" 
d="M400 729q154 0 263.5 -109t109.5 -263q0 -155 -109.5 -264t-263.5 -109t-263.5 109t-109.5 264q0 154 109.5 263t263.5 109zM400 690q-139 0 -236.5 -97.5t-97.5 -235.5q0 -139 97.5 -236.5t236.5 -97.5q138 0 236 97.5t98 236.5q0 138 -97.5 235.5t-236.5 97.5zM581 282
q-8 -63 -56.5 -102t-117.5 -39q-91 0 -145 58t-54 156t54.5 160t140.5 62q71 0 121 -42.5t55 -106.5h-53q-9 47 -41.5 74t-79.5 27q-62 0 -99 -47t-37 -125q0 -77 38.5 -123t102.5 -46q46 0 77.5 25t41.5 69h52z" />
    <glyph glyph-name="guillemotleft" unicode="&#xab;" horiz-adv-x="463" 
d="M399 427v-87l-100 -76l100 -78v-85l-152 120v87zM205 427v-85l-103 -77l103 -78v-87l-155 123v85z" />
    <glyph glyph-name="logicalnot" unicode="&#xac;" horiz-adv-x="600" 
d="M49 324v60h502v-251h-62v191h-440z" />
    <glyph glyph-name="registered" unicode="&#xae;" horiz-adv-x="400" 
d="M200 729q76 0 129.5 -54t53.5 -130t-53.5 -129.5t-128.5 -53.5q-76 0 -129.5 53.5t-53.5 129.5t53.5 130t128.5 54zM200 700q-63 0 -108.5 -45.5t-45.5 -109.5t45.5 -109.5t109.5 -45.5q63 0 108.5 45.5t45.5 109.5t-45.5 109.5t-109.5 45.5zM129 641h69q86 0 86 -55
q0 -33 -35 -46q32 -14 32 -60q0 -15 6 -27h-36q-5 10 -5 21q0 34 -10.5 43t-45.5 9h-27v-73h-34v188zM163 554h34q52 0 52 30q0 10 -4.5 16.5t-14 9t-16 3t-18.5 0.5h-33v-59z" />
    <glyph glyph-name="degree" unicode="&#xb0;" horiz-adv-x="400" 
d="M200 710q63 0 107 -44.5t44 -106.5q0 -63 -44 -107.5t-107 -44.5t-107 44.5t-44 107.5q0 62 44 106.5t107 44.5zM200 654q-39 0 -67 -28t-28 -67q0 -40 28 -67.5t67 -27.5t67 27.5t28 67.5q0 39 -28 67t-67 28z" />
    <glyph glyph-name="plusminus" unicode="&#xb1;" horiz-adv-x="600" 
d="M267 93v173h-218v60h218v174h66v-174h218v-60h-218v-173h-66zM49 -10v60h502v-60h-502z" />
    <glyph glyph-name="mu" unicode="&#xb5;" 
d="M63 -199v715h85v-224v-42t2.5 -42t6.5 -44t13 -36.5t22 -32t33 -19t46 -8.5q36 0 62.5 15t40 36.5t21.5 55t10 60t2 61.5v220h85v-516h-79v80q-32 -48 -63 -70t-82 -22q-45 0 -69.5 17t-50.5 58v-262h-85z" />
    <glyph glyph-name="paragraph" unicode="&#xb6;" horiz-adv-x="600" 
d="M546 659h-54v-835h-64v835h-122v-835h-64v435q-96 7 -150.5 65t-54.5 155q0 113 71.5 173t185.5 60h252v-53z" />
    <glyph glyph-name="periodcentered" unicode="&#xb7;" horiz-adv-x="278" 
d="M194 348v-111h-111v111h111z" />
    <glyph glyph-name="guillemotright" unicode="&#xbb;" horiz-adv-x="463" 
d="M258 429l155 -124v-85l-155 -119v85l102 76l-102 79v88zM63 427l152 -121v-85l-152 -118v85l100 75l-100 78v86z" />
    <glyph glyph-name="divide" unicode="&#xf7;" horiz-adv-x="600" 
d="M49 221v59h502v-59h-502zM252 24v112h96v-112h-96zM252 376v113h96v-113h-96z" />
    <glyph glyph-name="florin" unicode="&#x192;" 
d="M428 447l-13 -67h-103l-65 -350q-9 -51 -19.5 -81.5t-30 -60t-52.5 -42.5t-82 -13q-14 0 -58 3l13 73q34 -2 37 -2q29 0 47.5 7t29 26.5t14.5 33.5t11 50l69 356h-92l14 67h91l19 105q15 85 56 122.5t122 37.5q31 0 56 -3l-15 -73q-30 3 -42 3q-40 0 -60.5 -21t-30.5 -71
l-20 -100h104z" />
    <glyph glyph-name="afii10023" unicode="&#x401;" horiz-adv-x="611" 
d="M572 712v-82h-399v-223h373v-79h-373v-246h404v-82h-498v712h493zM468 874v-101h-90v101h90zM279 874v-101h-91v101h91z" />
    <glyph glyph-name="afii10051" unicode="&#x402;" horiz-adv-x="746" 
d="M711 170q0 -125 -75.5 -215t-192.5 -90h-13v81q90 6 138 68t48 156q0 91 -41 142t-114 51t-115.5 -51t-42.5 -141v-171h-94v630h-208v82h570v-82h-268v-270h2q22 40 68 61t100 21q108 0 173 -74t65 -198z" />
    <glyph glyph-name="afii10052" unicode="&#x403;" horiz-adv-x="547" 
d="M418 893l-120 -142h-66l81 142h105zM173 0h-94v712h468v-82h-374v-630z" />
    <glyph glyph-name="afii10053" unicode="&#x404;" horiz-adv-x="722" 
d="M677 247q-18 -125 -98.5 -194.5t-207.5 -69.5q-152 0 -241 100.5t-89 271.5q0 160 89.5 266.5t247.5 106.5q111 0 196.5 -59t97.5 -164h-95q-17 67 -70.5 104.5t-130.5 37.5q-104 0 -163.5 -65.5t-72.5 -168.5h342v-79h-346q6 -126 69.5 -198t169.5 -72q85 0 138 47
t69 136h95z" />
    <glyph glyph-name="afii10054" unicode="&#x405;" horiz-adv-x="648" 
d="M583 503h-91q-15 145 -177 145q-77 0 -119 -31t-42 -87q0 -20 6 -35t20.5 -26.5t27.5 -19.5t41 -16t45 -11.5t53 -11.5q44 -9 73 -16.5t69 -24.5t63.5 -37.5t41 -54.5t17.5 -77q0 -75 -42 -125.5t-102 -70.5t-133 -20q-134 0 -214.5 63.5t-80.5 187.5h91q3 -91 61 -132.5
t151 -41.5q73 0 125 30.5t52 99.5q0 32 -14 54.5t-44 37t-60 23.5t-79 20q-7 1 -10 2q-110 25 -144 40q-104 45 -104 155q0 102 75.5 152.5t182.5 50.5q117 0 187 -56t74 -167z" />
    <glyph glyph-name="afii10055" unicode="&#x406;" horiz-adv-x="259" 
d="M177 712v-712h-94v712h94z" />
    <glyph glyph-name="afii10056" unicode="&#x407;" horiz-adv-x="259" 
d="M177 712v-712h-94v712h94zM270 874v-101h-90v101h90zM81 874v-101h-90v101h90z" />
    <glyph glyph-name="afii10057" unicode="&#x408;" horiz-adv-x="519" 
d="M443 712v-493q0 -54 -9.5 -94t-31.5 -73.5t-63 -51t-101 -17.5q-113 0 -163 56t-50 168q0 14 1 27h91v-25q0 -72 24.5 -110t95.5 -38q32 0 53.5 10t33 23.5t17.5 38.5t7 44t1 51v484h94z" />
    <glyph glyph-name="afii10058" unicode="&#x409;" horiz-adv-x="1000" 
d="M962 213q0 -101 -57.5 -157t-161.5 -56h-274v630h-222l-14 -401q-4 -112 -45.5 -178t-119.5 -66q-36 0 -68 14v80q16 -10 51 -10q29 0 46.5 13.5t31 61.5t15.5 134l13 434h406v-288h180q105 0 162 -55t57 -156zM867 213q0 129 -156 129h-148v-260h148q156 0 156 131z" />
    <glyph glyph-name="afii10059" unicode="&#x40a;" horiz-adv-x="1000" 
d="M475 344h-302v-344h-94v714h94v-290h302v290h94v-290h174q105 0 162 -55.5t57 -156.5t-57.5 -156.5t-161.5 -55.5h-268v344zM867 212q0 132 -156 132h-142v-262h142q156 0 156 130z" />
    <glyph glyph-name="afii10060" unicode="&#x40b;" horiz-adv-x="746" 
d="M303 0h-94v630h-208v82h570v-82h-268v-218l31 8q31 8 43.5 11t38.5 7t46 4q240 0 240 -217v-225h-95v217q0 23 -1 37.5t-9 37t-22 35t-43 22.5t-70 10q-21 0 -41 -2t-38.5 -6t-29 -6.5t-29 -8t-21.5 -6.5v-330z" />
    <glyph glyph-name="afii10061" unicode="&#x40c;" horiz-adv-x="667" 
d="M657 712l-300 -286l312 -426h-120l-258 362l-118 -112v-250h-94v712h94v-353l361 353h123zM458 893l-120 -142h-66l81 142h105z" />
    <glyph glyph-name="afii10062" unicode="&#x40e;" horiz-adv-x="611" 
d="M462 899q-10 -63 -48.5 -100.5t-101.5 -37.5q-61 0 -102.5 38.5t-49.5 99.5h51q23 -78 100 -78q74 0 100 78h51zM259 186l-260 526h103l208 -434l204 434h101l-277 -567q-43 -88 -88.5 -125t-100.5 -37q-48 0 -88 18v80q29 -18 80 -18q59 0 106 98z" />
    <glyph glyph-name="afii10145" unicode="&#x40f;" horiz-adv-x="722" 
d="M409 0v-177h-94v177h-236v712h94v-630h376v630h94v-712h-234z" />
    <glyph glyph-name="afii10017" unicode="&#x410;" horiz-adv-x="648" 
d="M378 712l278 -712h-105l-79 218h-299l-81 -218h-100l280 712h106zM444 293l-121 329l-123 -329h244z" />
    <glyph glyph-name="afii10018" unicode="&#x411;" horiz-adv-x="685" 
d="M173 424h238q105 0 162 -56t57 -157q0 -100 -57.5 -155.5t-161.5 -55.5h-332v712h488v-82h-394v-206zM536 211q0 131 -156 131h-207v-260h207q156 0 156 129z" />
    <glyph glyph-name="afii10019" unicode="&#x412;" horiz-adv-x="685" 
d="M79 712h304q98 0 162.5 -43t64.5 -135q0 -53 -28.5 -94.5t-76.5 -58.5q66 -15 101.5 -62t35.5 -118q0 -201 -270 -201h-293v712zM171 632v-225h169q29 0 49.5 1.5t46.5 7.5t41.5 17.5t27 33.5t11.5 53t-10 52.5t-24 33t-38.5 17.5t-44 7.5t-50.5 1.5h-178zM171 333v-254
h188q35 0 57 1.5t49.5 8.5t43.5 20.5t27 39t11 61.5q0 30 -7.5 52t-25 35t-33 21t-44.5 11t-45 3.5t-49 0.5h-172z" />
    <glyph glyph-name="afii10020" unicode="&#x413;" horiz-adv-x="547" 
d="M173 0h-94v712h468v-82h-374v-630z" />
    <glyph glyph-name="afii10021" unicode="&#x414;" horiz-adv-x="722" 
d="M706 -177h-91v177h-515v-177h-91v259h70q41 73 67 209.5t26 282.5v138h455v-630h79v-259zM533 82v548h-269v-97q0 -129 -23.5 -255.5t-57.5 -195.5h350z" />
    <glyph glyph-name="afii10022" unicode="&#x415;" horiz-adv-x="611" 
d="M572 712v-82h-399v-223h373v-79h-373v-246h404v-82h-498v712h493z" />
    <glyph glyph-name="afii10024" unicode="&#x416;" horiz-adv-x="1000" 
d="M1008 0h-118l-260 354l-84 -88v-266h-92v266l-84 88l-260 -354h-118l316 420l-284 292h118l312 -331v331h92v-331l312 331h118l-284 -292z" />
    <glyph glyph-name="afii10025" unicode="&#x417;" horiz-adv-x="648" 
d="M609 208q0 -35 -16 -72.5t-47 -72.5t-87 -57t-127 -22q-134 0 -214.5 63.5t-80.5 187.5h91q3 -91 61 -132.5t151 -41.5q75 0 125 41t50 108q0 37 -14 63t-41 39t-56.5 18t-68.5 5q-34 0 -64 -2v78q16 -2 64 -2q155 0 155 128q0 114 -153 114q-162 0 -177 -145h-91
q4 110 78 166.5t193 56.5q109 0 176.5 -48t67.5 -144q0 -54 -35 -97.5t-83 -57.5v-3q68 -13 105.5 -61t37.5 -110z" />
    <glyph glyph-name="afii10026" unicode="&#x418;" horiz-adv-x="722" 
d="M79 0v712h94v-603h2l349 603h119v-712h-94v605h-2l-350 -605h-118z" />
    <glyph glyph-name="afii10027" unicode="&#x419;" horiz-adv-x="722" 
d="M511 899q-10 -63 -48.5 -100.5t-101.5 -37.5q-61 0 -102.5 38.5t-49.5 99.5h51q23 -78 100 -78q74 0 100 78h51zM79 0v712h94v-603h2l349 603h119v-712h-94v605h-2l-350 -605h-118z" />
    <glyph glyph-name="afii10028" unicode="&#x41a;" horiz-adv-x="667" 
d="M657 712l-300 -286l312 -426h-120l-258 362l-118 -112v-250h-94v712h94v-353l361 353h123z" />
    <glyph glyph-name="afii10029" unicode="&#x41b;" horiz-adv-x="685" 
d="M604 712v-712h-94v630h-263l-14 -401q-4 -112 -45.5 -178t-119.5 -66q-32 0 -68 14v80q16 -10 51 -10q29 0 46.5 13.5t31 61.5t15.5 134l13 434h447z" />
    <glyph glyph-name="afii10030" unicode="&#x41c;" horiz-adv-x="871" 
d="M80 712h130l229 -603l221 603h131v-712h-89v594l-223 -594h-82l-227 594v-594h-90v712z" />
    <glyph glyph-name="afii10031" unicode="&#x41d;" horiz-adv-x="722" 
d="M643 712v-712h-94v333h-376v-333h-94v712h94v-297h376v297h94z" />
    <glyph glyph-name="afii10032" unicode="&#x41e;" horiz-adv-x="760" 
d="M379 729q162 0 252 -101.5t90 -265.5q0 -165 -89 -272t-252 -107q-83 0 -149 30t-107.5 83t-63 121t-21.5 147q0 167 92.5 266t247.5 99zM379 647q-119 0 -182.5 -83.5t-63.5 -206.5q0 -134 67.5 -213.5t180.5 -79.5q112 0 179 80t67 213q0 132 -67.5 211t-180.5 79z" />
    <glyph glyph-name="afii10033" unicode="&#x41f;" horiz-adv-x="722" 
d="M643 712v-712h-94v630h-376v-630h-94v712h564z" />
    <glyph glyph-name="afii10034" unicode="&#x420;" horiz-adv-x="648" 
d="M83 712h293q109 0 173 -49.5t64 -155.5q0 -215 -243 -215h-193v-292h-94v712zM177 631v-260h181q76 0 118.5 28.5t42.5 101.5q0 41 -13.5 68t-39.5 40t-54 17.5t-67 4.5h-168z" />
    <glyph glyph-name="afii10035" unicode="&#x421;" horiz-adv-x="722" 
d="M682 269q-12 -135 -93.5 -210.5t-214.5 -75.5q-152 0 -241 100.5t-89 271.5q0 160 89.5 266.5t247.5 106.5q113 0 199 -61t96 -169h-94q-16 70 -70 109.5t-133 39.5q-119 0 -179.5 -84t-60.5 -207q0 -136 64 -214t175 -78q91 0 145 52.5t65 152.5h94z" />
    <glyph glyph-name="afii10036" unicode="&#x422;" horiz-adv-x="574" 
d="M573 712v-82h-239v-630h-94v630h-239v82h572z" />
    <glyph glyph-name="afii10037" unicode="&#x423;" horiz-adv-x="611" 
d="M259 186l-260 526h103l208 -434l204 434h101l-277 -567q-43 -88 -88.5 -125t-100.5 -37q-48 0 -88 18v80q29 -18 80 -18q59 0 106 98z" />
    <glyph glyph-name="afii10038" unicode="&#x424;" horiz-adv-x="778" 
d="M746 359q0 -132 -90 -202.5t-221 -70.5v-86h-94v86q-130 0 -220.5 72t-90.5 201t91 203.5t220 74.5v75h94v-75q131 0 221 -74t90 -204zM651 359q0 95 -59.5 145.5t-156.5 55.5v-397q99 7 157.5 54.5t58.5 141.5zM341 163v397q-97 -5 -156.5 -55.5t-59.5 -145.5
q0 -94 58.5 -141.5t157.5 -54.5z" />
    <glyph glyph-name="afii10039" unicode="&#x425;" horiz-adv-x="611" 
d="M595 712l-237 -345l250 -367h-114l-192 293l-199 -293h-108l251 367l-235 345h113l179 -274l185 274h107z" />
    <glyph glyph-name="afii10040" unicode="&#x426;" horiz-adv-x="722" 
d="M616 -177v177h-543v712h94v-630h368v630h94v-630h78v-259h-91z" />
    <glyph glyph-name="afii10041" unicode="&#x427;" horiz-adv-x="667" 
d="M589 0h-94v317q-109 -25 -198 -25q-62 0 -109.5 15.5t-73 38t-41.5 53.5t-21 56.5t-5 53.5v203h94v-195q0 -21 2.5 -37.5t11.5 -37t25 -34.5t46 -23.5t71 -9.5q90 0 198 24v313h94v-712z" />
    <glyph glyph-name="afii10042" unicode="&#x428;" horiz-adv-x="1073" 
d="M79 0v712h94v-630h316v630h94v-630h316v630h94v-712h-914z" />
    <glyph glyph-name="afii10043" unicode="&#x429;" horiz-adv-x="1083" 
d="M976 0h-903v712h94v-630h316v630h94v-630h316v630h94v-630h81v-259h-92v177z" />
    <glyph glyph-name="afii10044" unicode="&#x42a;" horiz-adv-x="803" 
d="M234 630h-232v82h326v-288h218q105 0 162 -56t57 -157q0 -100 -57.5 -155.5t-161.5 -55.5h-312v630zM670 211q0 131 -156 131h-186v-260h186q156 0 156 129z" />
    <glyph glyph-name="afii10045" unicode="&#x42b;" horiz-adv-x="871" 
d="M699 712h94v-712h-94v712zM610 211q0 -100 -57.5 -155.5t-161.5 -55.5h-312v712h94v-289h218q105 0 162 -55.5t57 -156.5zM515 211q0 131 -156 131h-186v-260h186q156 0 156 129z" />
    <glyph glyph-name="afii10046" unicode="&#x42c;" horiz-adv-x="648" 
d="M610 211q0 -100 -57.5 -155.5t-161.5 -55.5h-312v712h94v-289h218q105 0 162 -55.5t57 -156.5zM515 211q0 131 -156 131h-186v-260h186q156 0 156 129z" />
    <glyph glyph-name="afii10047" unicode="&#x42d;" horiz-adv-x="722" 
d="M678 355q0 -168 -93 -270t-237 -102q-127 0 -207.5 69.5t-98.5 194.5h95q16 -89 69 -136t138 -47q102 0 167.5 72.5t71.5 197.5h-346v79h342q-13 103 -71 168.5t-162 65.5q-78 0 -132.5 -38t-71.5 -104h-95q8 70 53.5 122t109 76.5t134.5 24.5q161 0 247.5 -105.5
t86.5 -267.5z" />
    <glyph glyph-name="afii10048" unicode="&#x42e;" horiz-adv-x="1000" 
d="M307 333h-134v-333h-94v712h94v-297h136q14 145 100.5 229.5t223.5 84.5q155 0 241.5 -101.5t86.5 -265.5q0 -165 -85.5 -272t-241.5 -107q-149 0 -233.5 98.5t-93.5 251.5zM867 357q0 132 -63.5 211t-170.5 79q-112 0 -172 -83.5t-60 -206.5q0 -133 63.5 -213t170.5 -80
q105 0 168.5 80t63.5 213z" />
    <glyph glyph-name="afii10049" unicode="&#x42f;" horiz-adv-x="667" 
d="M347 304l-235 -304h-116l238 307q-85 11 -131 62t-46 139q0 99 59.5 151.5t165.5 52.5h306v-712h-94v304h-147zM494 384v248h-180q-162 0 -162 -124t162 -124h180z" />
    <glyph glyph-name="afii10065" unicode="&#x430;" horiz-adv-x="537" 
d="M521 68v-66q-26 -10 -58 -10q-73 0 -75 76q-73 -82 -187 -82q-76 0 -120.5 39t-44.5 107q0 138 183 161q12 2 35 4q87 10 107 23q23 16 23 55q0 85 -117 85q-60 0 -91 -24.5t-37 -80.5h-83q2 83 59 129t157 46q109 0 162 -50q17 -16 25 -42t9 -42.5t1 -49.5
q0 -38 -2 -115t-2 -115q0 -28 7.5 -39.5t27.5 -11.5q8 0 21 3zM384 268q-9 -7 -19 -12t-25.5 -8t-21 -4.5t-26.5 -4t-22 -2.5q-31 -4 -40.5 -5.5t-36 -8.5t-37.5 -16t-21.5 -26.5t-10.5 -41.5q0 -40 27.5 -63t75.5 -23q61 0 109 36t48 85v94z" />
    <glyph glyph-name="afii10066" unicode="&#x431;" horiz-adv-x="574" 
d="M112 588q34 53 82 78.5t122 30.5q83 6 101 16q12 6 18 16h85q-3 -16 -8.5 -29t-12 -22.5t-18 -17.5t-19.5 -13.5t-23.5 -10t-24.5 -7t-27.5 -4.5t-26.5 -3t-29 -2t-27 -2q-82 -6 -128 -63.5t-58 -153.5h3q22 53 70 85t111 32q110 0 172.5 -69.5t62.5 -194.5
q0 -129 -63.5 -200t-178.5 -71q-94 0 -159 55.5t-80 159.5q-6 42 -6 94q0 201 62 296zM137 251q0 -88 42.5 -142t116.5 -54q72 0 113 52t41 145q0 91 -42 143t-114 52t-114.5 -52.5t-42.5 -143.5z" />
    <glyph glyph-name="afii10067" unicode="&#x432;" horiz-adv-x="537" 
d="M62 0v516h239q51 0 87 -8.5t63 -37.5t27 -79q0 -76 -76 -111v-1q46 -9 72 -42.5t26 -84.5q0 -66 -44 -109t-113 -43h-281zM292 308q53 0 75.5 17.5t22.5 51.5t-22 50t-76 16h-147v-135h147zM145 236v-163h182q40 0 62.5 24t22.5 62q0 77 -100 77h-167z" />
    <glyph glyph-name="afii10068" unicode="&#x433;" horiz-adv-x="420" 
d="M420 441h-269v-441h-85v516h354v-75z" />
    <glyph glyph-name="afii10069" unicode="&#x434;" horiz-adv-x="574" 
d="M564 -164h-81v164h-394v-164h-81v239h56q24 46 44.5 142.5t20.5 188.5v110h368v-441h67v-239zM412 75v366h-200v-43q0 -91 -18.5 -184.5t-41.5 -138.5h260z" />
    <glyph glyph-name="afii10070" unicode="&#x435;" horiz-adv-x="537" 
d="M505 163q-39 -180 -225 -180q-114 0 -178.5 71t-64.5 197q0 125 66.5 202.5t173.5 77.5q119 0 176.5 -80.5t57.5 -203.5v-12h-388l-1 -6q0 -82 43 -129t118 -47q56 0 88.5 26t50.5 84h83zM423 304q-6 74 -45 115.5t-103 41.5q-62 0 -103 -42t-49 -115h300z" />
    <glyph glyph-name="afii10072" unicode="&#x436;" horiz-adv-x="778" 
d="M282 250l-177 -250h-105l226 304l-197 212h105l210 -237h2v237h85v-237h2l210 237h105l-197 -212l226 -304h-105l-177 250l-64 -65v-185h-85v185z" />
    <glyph glyph-name="afii10073" unicode="&#x437;" horiz-adv-x="500" 
d="M35 367q6 88 67 126t151 38q85 0 139.5 -35t54.5 -104q0 -42 -24.5 -72t-58.5 -37v-2q41 -8 70.5 -40.5t29.5 -87.5q0 -80 -63 -124.5t-151 -44.5q-101 0 -160.5 46.5t-63.5 130.5h86q4 -54 41 -81t96 -27t93 28.5t34 69.5q0 84 -110 84h-71v69h57q49 0 79 20.5t30 63.5
q0 30 -29.5 52t-79.5 22q-51 0 -88.5 -23t-42.5 -72h-86z" />
    <glyph glyph-name="afii10074" unicode="&#x438;" 
d="M173 0h-109v516h85v-421h2l232 421h109v-516h-85v421h-2z" />
    <glyph glyph-name="afii10075" unicode="&#x439;" 
d="M429 712q-10 -63 -48.5 -100.5t-101.5 -37.5q-61 0 -102.5 38.5t-49.5 99.5h51q23 -78 100 -78q74 0 100 78h51zM173 0h-109v516h85v-421h2l232 421h109v-516h-85v421h-2z" />
    <glyph glyph-name="afii10076" unicode="&#x43a;" horiz-adv-x="519" 
d="M526 0h-108l-188 254l-81 -79v-175h-85v516h85v-246l236 246h114l-208 -203z" />
    <glyph glyph-name="afii10077" unicode="&#x43b;" 
d="M494 516v-516h-85v441h-184l-7 -228q-3 -118 -43 -171t-100 -53q-37 0 -61 11v69q13 -7 45 -7q30 0 51.5 32.5t23.5 109.5l9 312h351z" />
    <glyph glyph-name="afii10078" unicode="&#x43c;" horiz-adv-x="685" 
d="M623 0h-85v407h-3l-153 -407h-78l-153 407h-3v-407h-85v516h122l157 -418h2l157 418h122v-516z" />
    <glyph glyph-name="afii10079" unicode="&#x43d;" 
d="M149 0h-85v516h85v-205h258v205h85v-516h-85v236h-258v-236z" />
    <glyph glyph-name="afii10080" unicode="&#x43e;" horiz-adv-x="574" 
d="M290 531q117 0 182 -71t65 -199q0 -131 -65 -204t-183 -73t-185 72t-67 200q0 127 68 201t185 74zM288 460q-75 0 -119 -55t-44 -147q0 -95 43.5 -148.5t121.5 -53.5q75 0 117.5 54t42.5 149q0 92 -43.5 146.5t-118.5 54.5z" />
    <glyph glyph-name="afii10081" unicode="&#x43f;" 
d="M149 0h-85v516h428v-516h-85v441h-258v-441z" />
    <glyph glyph-name="afii10082" unicode="&#x440;" horiz-adv-x="593" 
d="M144 516v-73q56 89 174 89q108 0 171.5 -73t63.5 -198t-62.5 -199.5t-168.5 -74.5q-111 0 -173 85v-271h-85v715h80zM305 461q-74 0 -116.5 -53.5t-42.5 -147.5t43.5 -147.5t118.5 -53.5q73 0 115 54t42 147q0 94 -42.5 147.5t-117.5 53.5z" />
    <glyph glyph-name="afii10083" unicode="&#x441;" horiz-adv-x="537" 
d="M508 188q-11 -93 -70.5 -148t-154.5 -55q-117 0 -181 72.5t-64 193.5q0 129 67 204.5t181 75.5q95 0 152 -47.5t67 -135.5h-88q-23 112 -130 112q-74 0 -117 -54.5t-43 -147.5q0 -94 41 -148t113 -54q58 0 94.5 34t46.5 98h86z" />
    <glyph glyph-name="afii10084" unicode="&#x442;" horiz-adv-x="463" 
d="M459 441h-185v-441h-85v441h-185v75h455v-75z" />
    <glyph glyph-name="afii10085" unicode="&#x443;" horiz-adv-x="500" 
d="M491 516l-221 -582q-13 -35 -22.5 -54.5t-27 -43t-42 -34t-57.5 -10.5q-25 0 -63 9v76q37 -11 55 -11q42 0 60 43l40 94l-205 513h96l153 -411l145 411h89z" />
    <glyph glyph-name="afii10086" unicode="&#x444;" horiz-adv-x="800" 
d="M760 266q0 -77 -19 -137t-67.5 -100.5t-121.5 -40.5q-28 0 -60 16t-48 35h-2v-238h-84v238h-2q-16 -19 -48 -35t-60 -16q-73 0 -121.5 40.5t-67.5 100.5t-19 137q0 122 54 192.5t147 70.5q32 0 65.5 -17.5t48.5 -38.5h3v239h84v-239h3q15 21 48.5 38.5t65.5 17.5
q93 0 147 -70.5t54 -192.5zM672 264q0 89 -31 141.5t-94 52.5q-33 0 -63.5 -17t-41.5 -55v-260q5 -28 33.5 -47.5t66.5 -19.5q37 0 63.5 18t40.5 49.5t20 65t6 72.5zM358 126v260q-11 38 -41.5 55t-63.5 17q-63 0 -94 -52.5t-31 -141.5q0 -39 6 -72.5t20 -65t40.5 -49.5
t63.5 -18q38 0 66.5 19.5t33.5 47.5z" />
    <glyph glyph-name="afii10087" unicode="&#x445;" horiz-adv-x="518" 
d="M488 516l-180 -238l201 -278h-109l-145 212l-143 -212h-103l194 272l-179 244h108l125 -177l128 177h103z" />
    <glyph glyph-name="afii10088" unicode="&#x446;" horiz-adv-x="570" 
d="M474 -164v164h-410v516h85v-441h254v441h85v-441h67v-239h-81z" />
    <glyph glyph-name="afii10089" unicode="&#x447;" horiz-adv-x="527" 
d="M463 0h-85v228q-21 -6 -73.5 -14.5t-86.5 -8.5q-79 0 -123.5 37.5t-44.5 110.5v163h85v-149q0 -90 99 -90q71 0 144 23v216h85v-516z" />
    <glyph glyph-name="afii10090" unicode="&#x448;" horiz-adv-x="809" 
d="M64 0v516h85v-441h213v441h85v-441h213v441h85v-516h-681z" />
    <glyph glyph-name="afii10091" unicode="&#x449;" horiz-adv-x="824" 
d="M64 0v516h85v-441h213v441h85v-441h213v441h85v-441h67v-239h-81v164h-667z" />
    <glyph glyph-name="afii10092" unicode="&#x44a;" horiz-adv-x="611" 
d="M589 161q0 -73 -44.5 -117t-119.5 -44h-273v441h-149v75h234v-197h184q76 0 122 -42.5t46 -115.5zM501 161q0 85 -107 85h-157v-171h157q52 0 79.5 22.5t27.5 63.5z" />
    <glyph glyph-name="afii10093" unicode="&#x44b;" horiz-adv-x="704" 
d="M556 516h85v-516h-85v516zM474 161q0 -73 -44.5 -117t-119.5 -44h-249v516h85v-197h160q76 0 122 -42.5t46 -115.5zM279 246h-133v-171h133q52 0 79.5 22.5t27.5 63.5q0 85 -107 85z" />
    <glyph glyph-name="afii10094" unicode="&#x44c;" horiz-adv-x="519" 
d="M498 161q0 -73 -44.5 -117t-119.5 -44h-273v516h85v-197h184q76 0 122 -42.5t46 -115.5zM303 246h-157v-171h157q52 0 79.5 22.5t27.5 63.5q0 85 -107 85z" />
    <glyph glyph-name="afii10095" unicode="&#x44d;" horiz-adv-x="537" 
d="M499 251q0 -121 -64 -193.5t-181 -72.5q-92 0 -150.5 51.5t-72.5 139.5h86q12 -58 48 -89t91 -31q67 0 107.5 47.5t45.5 131.5h-216v69h214q-11 73 -52 114.5t-105 41.5q-97 0 -125 -94h-90q14 79 70.5 122t145.5 43q114 0 181 -75.5t67 -204.5z" />
    <glyph glyph-name="afii10096" unicode="&#x44e;" horiz-adv-x="766" 
d="M492 531q113 0 175 -71t62 -199q0 -131 -62.5 -204t-175.5 -73q-109 0 -173 66.5t-69 185.5h-100v-236h-85v516h85v-205h104q14 103 77 161.5t162 58.5zM490 460q-70 0 -111.5 -55t-41.5 -147q0 -95 41 -148.5t114 -53.5q70 0 110 54t40 149q0 92 -41 146.5t-111 54.5z
" />
    <glyph glyph-name="afii10097" unicode="&#x44f;" horiz-adv-x="537" 
d="M472 0h-85v211h-113l-163 -211h-113l178 214q-57 9 -92.5 48.5t-35.5 101.5q0 72 43 112t119 40h262v-516zM387 441h-150q-102 0 -102 -77q0 -78 102 -78h150v155z" />
    <glyph glyph-name="afii10071" unicode="&#x451;" horiz-adv-x="537" 
d="M420 711v-101h-90v101h90zM231 711v-101h-91v101h91zM505 163q-39 -180 -225 -180q-114 0 -178.5 71t-64.5 197q0 125 66.5 202.5t173.5 77.5q119 0 176.5 -80.5t57.5 -203.5v-12h-388l-1 -6q0 -82 43 -129t118 -47q56 0 88.5 26t50.5 84h83zM423 304q-6 74 -45 115.5
t-103 41.5q-62 0 -103 -42t-49 -115h300z" />
    <glyph glyph-name="afii10099" unicode="&#x452;" 
d="M512 86q0 -123 -75.5 -201t-196.5 -83v79q86 10 136.5 66t50.5 148v87q0 54 -29 83.5t-80 29.5q-69 0 -109 -40t-40 -113v-142h-85v441h-75v75h75v196h85v-196h236v-75h-236v-163h2q48 91 167 91q174 0 174 -189v-94z" />
    <glyph glyph-name="afii10100" unicode="&#x453;" horiz-adv-x="420" 
d="M319 732l-120 -142h-66l81 142h105zM420 441h-269v-441h-85v516h354v-75z" />
    <glyph glyph-name="afii10101" unicode="&#x454;" horiz-adv-x="537" 
d="M508 176q-14 -88 -73 -139.5t-150 -51.5q-117 0 -181 72.5t-64 193.5q0 129 67 204.5t181 75.5q89 0 145 -42.5t71 -122.5h-90q-28 94 -125 94q-64 0 -105.5 -41.5t-51.5 -114.5h218v-69h-221q5 -84 46 -131.5t108 -47.5q55 0 91 31t48 89h86z" />
    <glyph glyph-name="afii10102" unicode="&#x455;" horiz-adv-x="500" 
d="M447 366h-85q-8 94 -126 94q-49 0 -77 -19t-28 -51q0 -9 2 -17.5t7.5 -15t10 -11.5t15 -9.5t16 -7.5t20 -6.5t20.5 -5t23.5 -5.5t22.5 -5q37 -8 55.5 -13t51 -18.5t49.5 -28t30.5 -40t13.5 -57.5q0 -75 -58.5 -120.5t-155.5 -45.5q-105 0 -161.5 46t-60.5 133h84
q7 -109 140 -109q57 0 91.5 23.5t34.5 62.5q0 26 -18 43t-40 24.5t-63 17.5q-6 1 -9 2q-9 2 -38.5 8.5t-42.5 10.5t-37.5 12.5t-36.5 18t-26.5 24t-20.5 34t-6 44.5q0 70 53.5 111t143.5 41q91 0 148.5 -43t57.5 -122z" />
    <glyph glyph-name="afii10103" unicode="&#x456;" horiz-adv-x="222" 
d="M154 712v-104h-86v104h86zM154 516v-516h-86v516h86z" />
    <glyph glyph-name="afii10104" unicode="&#x457;" horiz-adv-x="222" 
d="M154 516v-516h-86v516h86zM250 712v-102h-89v102h89zM61 712v-102h-90v102h90z" />
    <glyph glyph-name="afii10105" unicode="&#x458;" horiz-adv-x="222" 
d="M156 516v-573q0 -78 -27 -114.5t-105 -36.5q-16 0 -39 4v71q26 -2 29 -2q21 0 33 4t17 17t5.5 22.5t0.5 36.5v571h86zM156 712v-104h-86v104h86z" />
    <glyph glyph-name="afii10106" unicode="&#x459;" horiz-adv-x="778" 
d="M756 161q0 -74 -41.5 -117.5t-116.5 -43.5h-226v441h-152l-7 -228q-3 -118 -43 -171t-100 -53q-37 0 -61 11v69q13 -7 45 -7q30 0 51.5 32.5t23.5 109.5l9 312h319v-195h141q75 0 116.5 -43t41.5 -117zM668 161q0 85 -101 85h-110v-171h110q101 0 101 86z" />
    <glyph glyph-name="afii10107" unicode="&#x45a;" horiz-adv-x="778" 
d="M367 246h-218v-246h-85v516h85v-195h218v195h85v-195h146q75 0 116.5 -43t41.5 -117t-41.5 -117.5t-116.5 -43.5h-231v246zM567 246h-115v-171h115q101 0 101 86q0 85 -101 85z" />
    <glyph glyph-name="afii10108" unicode="&#x45b;" 
d="M9 441v75h75v196h85v-196h226v-75h-226v-160h2q46 88 167 88q174 0 174 -189v-180h-85v190q0 49 -29 76.5t-80 27.5q-69 0 -109 -39.5t-40 -112.5v-142h-85v441h-75z" />
    <glyph glyph-name="afii10109" unicode="&#x45c;" horiz-adv-x="519" 
d="M379 732l-120 -142h-66l81 142h105zM526 0h-108l-188 254l-81 -79v-175h-85v516h85v-246l236 246h114l-208 -203z" />
    <glyph glyph-name="afii10110" unicode="&#x45e;" horiz-adv-x="500" 
d="M406 712q-10 -63 -48.5 -100.5t-101.5 -37.5q-61 0 -102.5 38.5t-49.5 99.5h51q23 -78 100 -78q74 0 100 78h51zM491 516l-221 -582q-13 -35 -22.5 -54.5t-27 -43t-42 -34t-57.5 -10.5q-25 0 -63 9v76q37 -11 55 -11q42 0 60 43l40 94l-205 513h96l153 -411l145 411h89z
" />
    <glyph glyph-name="afii10193" unicode="&#x45f;" 
d="M320 0v-164h-85v164h-171v516h85v-441h258v441h85v-516h-172z" />
    <glyph glyph-name="afii10050" unicode="&#x490;" horiz-adv-x="547" 
d="M547 873v-243h-374v-630h-94v712h373v161h95z" />
    <glyph glyph-name="afii10098" unicode="&#x491;" horiz-adv-x="420" 
d="M414 672v-231h-265v-441h-85v516h265v156h85z" />
    <glyph glyph-name="endash" unicode="&#x2013;" horiz-adv-x="500" 
d="M500 319v-82h-500v82h500z" />
    <glyph glyph-name="emdash" unicode="&#x2014;" horiz-adv-x="1000" 
d="M1000 319v-82h-1000v82h1000z" />
    <glyph glyph-name="quoteleft" unicode="&#x2018;" horiz-adv-x="278" 
d="M191 473h-113v109q0 52 31 93t82 53v-50q-55 -18 -57 -98h57v-107z" />
    <glyph glyph-name="quoteright" unicode="&#x2019;" horiz-adv-x="278" 
d="M199 712v-109q0 -52 -31 -93t-82 -53v50q55 18 57 98h-57v107h113z" />
    <glyph glyph-name="quotesinglbase" unicode="&#x201a;" horiz-adv-x="278" 
d="M191 103v-81q0 -137 -108 -168v48q52 22 55 98h-55v103h108z" />
    <glyph glyph-name="quotedblleft" unicode="&#x201c;" horiz-adv-x="426" 
d="M357 478h-108v81q0 137 108 168v-48q-52 -22 -55 -98h55v-103zM175 478h-108v81q0 137 108 168v-48q-52 -22 -55 -98h55v-103z" />
    <glyph glyph-name="quotedblright" unicode="&#x201d;" horiz-adv-x="426" 
d="M358 712v-81q0 -137 -108 -168v48q52 22 55 98h-55v103h108zM176 712v-81q0 -137 -108 -168v48q52 22 55 98h-55v103h108z" />
    <glyph glyph-name="quotedblbase" unicode="&#x201e;" horiz-adv-x="426" 
d="M359 103v-81q0 -137 -108 -168v48q52 22 55 98h-55v103h108zM177 103v-81q0 -137 -108 -168v48q52 22 55 98h-55v103h108z" />
    <glyph glyph-name="dagger" unicode="&#x2020;" 
d="M514 506v-74h-197v-588h-81v588h-194v74h194v206h81v-206h197z" />
    <glyph glyph-name="daggerdbl" unicode="&#x2021;" 
d="M514 513v-74h-197v-323h197v-74h-197v-197h-81v197h-194v74h194v323h-194v74h194v199h81v-199h197z" />
    <glyph glyph-name="bullet" unicode="&#x2022;" horiz-adv-x="500" 
d="M250 534q74 0 126 -52t52 -126t-52 -126t-126 -52t-126 52t-52 126t52 126t126 52z" />
    <glyph glyph-name="ellipsis" unicode="&#x2026;" horiz-adv-x="1000" 
d="M126 0v107h82v-107h-82zM459 0v107h82v-107h-82zM792 0v107h82v-107h-82z" />
    <glyph glyph-name="perthousand" unicode="&#x2030;" horiz-adv-x="1148" 
d="M658 731l-471 -766h-63l474 766h60zM231 709q71 0 108.5 -42.5t37.5 -124.5q0 -83 -38.5 -127.5t-109.5 -44.5q-145 0 -145 169q0 82 38 126t109 44zM230 655q-73 0 -73 -119q0 -111 73 -111t73 113q0 117 -73 117zM572 328q71 0 108.5 -42.5t37.5 -124.5
q0 -83 -38.5 -127.5t-109.5 -44.5q-145 0 -145 169q0 82 38 126t109 44zM571 274q-73 0 -73 -119q0 -111 73 -111t73 113q0 117 -73 117zM918 328q71 0 108.5 -42.5t37.5 -124.5q0 -83 -38.5 -127.5t-109.5 -44.5q-145 0 -145 169q0 82 38 126t109 44zM917 274
q-73 0 -73 -119q0 -111 73 -111t73 113q0 117 -73 117z" />
    <glyph glyph-name="guilsinglleft" unicode="&#x2039;" horiz-adv-x="259" 
d="M194 426v-86l-101 -75l101 -79v-86l-152 121v87z" />
    <glyph glyph-name="guilsinglright" unicode="&#x203a;" horiz-adv-x="259" 
d="M65 427l152 -120v-88l-152 -117v86l101 75l-101 78v86z" />
    <glyph glyph-name="afii61352" unicode="&#x2116;" horiz-adv-x="1000" 
d="M946 274q0 -67 -38.5 -104.5t-106.5 -37.5q-69 0 -109 38.5t-40 104.5t39.5 106t104.5 40q70 0 110 -39t40 -108zM944 0h-280v63h280v-63zM590 0h-104l-317 555h-2v-555h-90v696h101l320 -561h2v561h90v-696zM873 277q0 44 -19.5 66.5t-52.5 22.5q-36 0 -56 -22.5
t-20 -67.5q0 -89 75 -89q73 0 73 90z" />
    <glyph glyph-name="trademark" unicode="&#x2122;" horiz-adv-x="990" 
d="M234 356v314h-122v42h293v-42h-122v-314h-49zM469 356v356h73l107 -284l107 284h71v-356h-44v309l-115 -309h-40l-115 309v-309h-44z" />
    <glyph glyph-name="Delta" unicode="&#x2206;" horiz-adv-x="670" 
d="M369 712l287 -712h-642l282 712h73zM106 61h454l-229 585z" />
    <glyph glyph-name="radical" unicode="&#x221a;" horiz-adv-x="600" 
d="M546 786l-210 -1000h-66l-164 340l-46 -22l-24 50l100 48l159 -332l188 916h63z" />
    <glyph glyph-name="infinity" unicode="&#x221e;" horiz-adv-x="741" 
d="M371 282q30 30 41.5 41t39.5 33t53.5 31t52.5 9q62 0 102 -41.5t40 -105.5q0 -66 -39 -107t-101 -41q-44 0 -86 23.5t-103 83.5q-2 -2 -20 -18t-22 -19.5t-20.5 -17t-24 -17.5t-23 -13t-26 -12.5t-25.5 -6.5t-29 -3q-62 0 -101 40.5t-39 104.5q0 65 39 107t99 42
q35 0 73.5 -20t62 -40t56.5 -53zM409 245q27 -25 45.5 -40.5t49 -30.5t58.5 -15q37 0 59 24t22 63q0 42 -23 67t-61 25q-26 0 -57.5 -18t-47 -32t-45.5 -43zM333 246q-9 7 -33.5 27t-39.5 31.5t-38 22t-44 10.5q-35 0 -58 -26t-23 -65q0 -40 23.5 -63.5t61.5 -23.5
q64 0 151 87z" />
    <glyph glyph-name="approxequal" unicode="&#x2248;" horiz-adv-x="600" 
d="M562 412q-7 -66 -39.5 -101.5t-86.5 -35.5q-33 0 -138 35q-13 4 -35.5 11.5l-33 11t-25 8t-24.5 6t-19 1.5q-30 0 -51.5 -22.5t-26.5 -57.5h-45q5 59 36.5 99t88.5 40q16 0 38 -4.5t36 -9t41 -13.5t35 -12l28.5 -9.5t35.5 -12t32 -8.5t32 -4q32 0 52.5 22.5t25.5 55.5h43
zM562 242q-7 -66 -39.5 -101.5t-86.5 -35.5q-33 0 -138 35q-13 4 -35.5 11.5l-33 11t-25 8t-24.5 6t-19 1.5q-30 0 -51.5 -22.5t-26.5 -57.5h-45q5 59 36.5 99t88.5 40q16 0 38 -4.5t36 -9t41 -13.5t35 -12l28.5 -9.5t35.5 -12t32 -8.5t32 -4q32 0 52.5 22.5t25.5 55.5h43z
" />
    <glyph glyph-name="notequal" unicode="&#x2260;" horiz-adv-x="600" 
d="M230 193l68 131h-249v60h282l77 147l52 -28l-64 -119h155v-60h-186l-69 -131h255v-59h-287l-76 -144l-52 28l62 116h-149v59h181z" />
    <glyph glyph-name="lessequal" unicode="&#x2264;" horiz-adv-x="600" 
d="M49 263v65l502 189v-65l-419 -157l419 -155v-65zM49 32h502v-59h-502v59z" />
    <glyph glyph-name="greaterequal" unicode="&#x2265;" horiz-adv-x="600" 
d="M551 263l-502 -188v65l420 155l-420 157v65l502 -189v-65zM551 32v-59h-502v59h502z" />
    <glyph glyph-name="hyphenminus" unicode="&#xe000;" horiz-adv-x="389" 
d="M340 320v-84h-291v84h291z" />
    <glyph glyph-name="nbspace" unicode="&#xe001;" horiz-adv-x="278" 
 />
    <hkern u1="&#x2d;" u2="&#x442;" k="64" />
    <hkern u1="&#x2f;" u2="&#x44f;" k="39" />
    <hkern u1="&#x2f;" u2="&#x441;" k="59" />
    <hkern u1="&#x2f;" u2="&#x43e;" k="59" />
    <hkern u1="&#x2f;" u2="&#x43b;" k="59" />
    <hkern u1="&#x2f;" u2="&#x437;" k="59" />
    <hkern u1="&#x2f;" u2="&#x434;" k="59" />
    <hkern u1="&#x2f;" u2="&#x431;" k="39" />
    <hkern u1="&#x2f;" u2="&#x423;" k="-28" />
    <hkern u1="A" u2="&#x2019;" k="74" />
    <hkern u1="A" u2="y" k="18" />
    <hkern u1="A" u2="w" k="18" />
    <hkern u1="A" u2="v" k="18" />
    <hkern u1="A" u2="Y" k="74" />
    <hkern u1="A" u2="W" k="24" />
    <hkern u1="A" u2="V" k="46" />
    <hkern u1="A" u2="T" k="92" />
    <hkern u1="F" u2="A" k="55" />
    <hkern u1="F" u2="&#x2e;" k="157" />
    <hkern u1="F" u2="&#x2c;" k="157" />
    <hkern u1="L" u2="&#x2019;" k="74" />
    <hkern u1="L" u2="y" k="37" />
    <hkern u1="L" u2="Y" k="111" />
    <hkern u1="L" u2="W" k="55" />
    <hkern u1="L" u2="V" k="92" />
    <hkern u1="L" u2="T" k="92" />
    <hkern u1="P" u2="A" k="74" />
    <hkern u1="P" u2="&#x2e;" k="179" />
    <hkern u1="P" u2="&#x2c;" k="179" />
    <hkern u1="R" u2="Y" k="37" />
    <hkern u1="R" u2="W" k="18" />
    <hkern u1="R" u2="V" k="18" />
    <hkern u1="R" u2="T" k="18" />
    <hkern u1="T" u2="y" k="111" />
    <hkern u1="T" u2="w" k="111" />
    <hkern u1="T" u2="u" k="92" />
    <hkern u1="T" u2="s" k="111" />
    <hkern u1="T" u2="r" k="92" />
    <hkern u1="T" u2="o" k="111" />
    <hkern u1="T" u2="e" k="111" />
    <hkern u1="T" u2="c" k="111" />
    <hkern u1="T" u2="a" k="111" />
    <hkern u1="T" u2="A" k="92" />
    <hkern u1="T" u2="&#x3b;" k="111" />
    <hkern u1="T" u2="&#x3a;" k="111" />
    <hkern u1="T" u2="&#x2e;" k="111" />
    <hkern u1="T" u2="&#x2d;" k="129" />
    <hkern u1="T" u2="&#x2c;" k="111" />
    <hkern u1="V" u2="y" k="18" />
    <hkern u1="V" u2="u" k="37" />
    <hkern u1="V" u2="r" k="37" />
    <hkern u1="V" u2="o" k="55" />
    <hkern u1="V" u2="i" k="18" />
    <hkern u1="V" u2="e" k="55" />
    <hkern u1="V" u2="a" k="55" />
    <hkern u1="V" u2="A" k="46" />
    <hkern u1="V" u2="&#x3b;" k="46" />
    <hkern u1="V" u2="&#x3a;" k="46" />
    <hkern u1="V" u2="&#x2e;" k="129" />
    <hkern u1="V" u2="&#x2d;" k="55" />
    <hkern u1="V" u2="&#x2c;" k="129" />
    <hkern u1="W" u2="u" k="18" />
    <hkern u1="W" u2="r" k="18" />
    <hkern u1="W" u2="o" k="57" />
    <hkern u1="W" u2="e" k="57" />
    <hkern u1="W" u2="a" k="37" />
    <hkern u1="W" u2="A" k="24" />
    <hkern u1="W" u2="&#x3b;" k="18" />
    <hkern u1="W" u2="&#x3a;" k="18" />
    <hkern u1="W" u2="&#x2e;" k="74" />
    <hkern u1="W" u2="&#x2c;" k="74" />
    <hkern u1="Y" u2="v" k="55" />
    <hkern u1="Y" u2="u" k="74" />
    <hkern u1="Y" u2="q" k="92" />
    <hkern u1="Y" u2="p" k="74" />
    <hkern u1="Y" u2="o" k="111" />
    <hkern u1="Y" u2="i" k="37" />
    <hkern u1="Y" u2="e" k="111" />
    <hkern u1="Y" u2="a" k="92" />
    <hkern u1="Y" u2="A" k="74" />
    <hkern u1="Y" u2="&#x3b;" k="92" />
    <hkern u1="Y" u2="&#x3a;" k="92" />
    <hkern u1="Y" u2="&#x2e;" k="139" />
    <hkern u1="Y" u2="&#x2d;" k="111" />
    <hkern u1="Y" u2="&#x2c;" k="139" />
    <hkern u1="f" u2="&#x2019;" k="-18" />
    <hkern u1="f" u2="f" k="18" />
    <hkern u1="r" u2="q" k="18" />
    <hkern u1="r" u2="o" k="18" />
    <hkern u1="r" u2="n" k="-18" />
    <hkern u1="r" u2="g" k="28" />
    <hkern u1="r" u2="e" k="18" />
    <hkern u1="r" u2="d" k="18" />
    <hkern u1="r" u2="c" k="18" />
    <hkern u1="r" u2="&#x2e;" k="92" />
    <hkern u1="r" u2="&#x2d;" k="55" />
    <hkern u1="r" u2="&#x2c;" k="92" />
    <hkern u1="v" u2="&#x2e;" k="74" />
    <hkern u1="v" u2="&#x2c;" k="74" />
    <hkern u1="w" u2="&#x2e;" k="55" />
    <hkern u1="w" u2="&#x2c;" k="55" />
    <hkern u1="y" u2="&#x2e;" k="74" />
    <hkern u1="y" u2="&#x2c;" k="74" />
    <hkern u1="&#x402;" u2="&#x423;" k="21" />
    <hkern u1="&#x403;" u2="&#x3b;" k="123" />
    <hkern u1="&#x403;" u2="&#x3a;" k="123" />
    <hkern u1="&#x403;" u2="&#x2e;" k="142" />
    <hkern u1="&#x409;" u2="&#x201d;" k="85" />
    <hkern u1="&#x409;" u2="&#x2019;" k="85" />
    <hkern u1="&#x409;" u2="&#x427;" k="66" />
    <hkern u1="&#x409;" u2="&#x423;" k="46" />
    <hkern u1="&#x409;" u2="&#x422;" k="95" />
    <hkern u1="&#x40a;" u2="&#x201d;" k="85" />
    <hkern u1="&#x40a;" u2="&#x2019;" k="85" />
    <hkern u1="&#x40a;" u2="&#x427;" k="66" />
    <hkern u1="&#x40a;" u2="&#x423;" k="46" />
    <hkern u1="&#x40a;" u2="&#x422;" k="95" />
    <hkern u1="&#x40b;" u2="&#x423;" k="21" />
    <hkern u1="&#x410;" u2="&#x201d;" k="74" />
    <hkern u1="&#x410;" u2="&#x2019;" k="74" />
    <hkern u1="&#x410;" u2="&#x442;" k="26" />
    <hkern u1="&#x410;" u2="&#x427;" k="43" />
    <hkern u1="&#x410;" u2="&#x422;" k="92" />
    <hkern u1="&#x410;" u2="&#x40b;" k="68" />
    <hkern u1="&#x410;" u2="&#x402;" k="68" />
    <hkern u1="&#x411;" u2="&#x427;" k="26" />
    <hkern u1="&#x411;" u2="&#x423;" k="18" />
    <hkern u1="&#x411;" u2="&#x422;" k="26" />
    <hkern u1="&#x413;" u2="&#x44f;" k="157" />
    <hkern u1="&#x413;" u2="&#x44e;" k="140" />
    <hkern u1="&#x413;" u2="&#x44d;" k="157" />
    <hkern u1="&#x413;" u2="&#x446;" k="140" />
    <hkern u1="&#x413;" u2="&#x443;" k="140" />
    <hkern u1="&#x413;" u2="&#x440;" k="140" />
    <hkern u1="&#x413;" u2="&#x43e;" k="157" />
    <hkern u1="&#x413;" u2="&#x43d;" k="140" />
    <hkern u1="&#x413;" u2="&#x43c;" k="140" />
    <hkern u1="&#x413;" u2="&#x43b;" k="157" />
    <hkern u1="&#x413;" u2="&#x438;" k="140" />
    <hkern u1="&#x413;" u2="&#x436;" k="140" />
    <hkern u1="&#x413;" u2="&#x435;" k="157" />
    <hkern u1="&#x413;" u2="&#x434;" k="157" />
    <hkern u1="&#x413;" u2="&#x432;" k="140" />
    <hkern u1="&#x413;" u2="&#x430;" k="157" />
    <hkern u1="&#x413;" u2="&#x41b;" k="46" />
    <hkern u1="&#x413;" u2="&#x414;" k="53" />
    <hkern u1="&#x413;" u2="&#x410;" k="111" />
    <hkern u1="&#x413;" u2="&#x3b;" k="123" />
    <hkern u1="&#x413;" u2="&#x3a;" k="123" />
    <hkern u1="&#x413;" u2="&#x2f;" k="106" />
    <hkern u1="&#x413;" u2="&#x2e;" k="142" />
    <hkern u1="&#x413;" u2="&#x2d;" k="160" />
    <hkern u1="&#x413;" u2="&#x2c;" k="142" />
    <hkern u1="&#x416;" u2="&#x42d;" k="18" />
    <hkern u1="&#x416;" u2="&#x421;" k="18" />
    <hkern u1="&#x416;" u2="&#x41e;" k="18" />
    <hkern u1="&#x41a;" u2="&#x42d;" k="18" />
    <hkern u1="&#x41a;" u2="&#x424;" k="18" />
    <hkern u1="&#x41a;" u2="&#x421;" k="18" />
    <hkern u1="&#x41a;" u2="&#x41e;" k="18" />
    <hkern u1="&#x41e;" u2="&#x425;" k="18" />
    <hkern u1="&#x41e;" u2="&#x422;" k="18" />
    <hkern u1="&#x41e;" u2="&#x416;" k="18" />
    <hkern u1="&#x41e;" u2="&#x40b;" k="18" />
    <hkern u1="&#x41e;" u2="&#x402;" k="18" />
    <hkern u1="&#x420;" u2="&#x434;" k="46" />
    <hkern u1="&#x420;" u2="&#x41b;" k="37" />
    <hkern u1="&#x420;" u2="&#x416;" k="24" />
    <hkern u1="&#x420;" u2="&#x414;" k="55" />
    <hkern u1="&#x420;" u2="&#x410;" k="74" />
    <hkern u1="&#x420;" u2="&#x2f;" k="70" />
    <hkern u1="&#x420;" u2="&#x2e;" k="179" />
    <hkern u1="&#x420;" u2="&#x2c;" k="179" />
    <hkern u1="&#x421;" u2="&#x425;" k="18" />
    <hkern u1="&#x421;" u2="&#x422;" k="18" />
    <hkern u1="&#x421;" u2="&#x416;" k="18" />
    <hkern u1="&#x422;" u2="&#x454;" k="83" />
    <hkern u1="&#x422;" u2="&#x451;" k="64" />
    <hkern u1="&#x422;" u2="&#x44f;" k="111" />
    <hkern u1="&#x422;" u2="&#x44e;" k="92" />
    <hkern u1="&#x422;" u2="&#x44d;" k="111" />
    <hkern u1="&#x422;" u2="&#x44c;" k="92" />
    <hkern u1="&#x422;" u2="&#x44b;" k="92" />
    <hkern u1="&#x422;" u2="&#x449;" k="92" />
    <hkern u1="&#x422;" u2="&#x443;" k="111" />
    <hkern u1="&#x422;" u2="&#x440;" k="92" />
    <hkern u1="&#x422;" u2="&#x43e;" k="111" />
    <hkern u1="&#x422;" u2="&#x43d;" k="92" />
    <hkern u1="&#x422;" u2="&#x43c;" k="92" />
    <hkern u1="&#x422;" u2="&#x43b;" k="111" />
    <hkern u1="&#x422;" u2="&#x43a;" k="92" />
    <hkern u1="&#x422;" u2="&#x438;" k="92" />
    <hkern u1="&#x422;" u2="&#x435;" k="111" />
    <hkern u1="&#x422;" u2="&#x432;" k="92" />
    <hkern u1="&#x422;" u2="&#x430;" k="111" />
    <hkern u1="&#x422;" u2="&#x42d;" k="18" />
    <hkern u1="&#x422;" u2="&#x424;" k="26" />
    <hkern u1="&#x422;" u2="&#x421;" k="18" />
    <hkern u1="&#x422;" u2="&#x41e;" k="18" />
    <hkern u1="&#x422;" u2="&#x410;" k="92" />
    <hkern u1="&#x422;" u2="&#x3b;" k="111" />
    <hkern u1="&#x422;" u2="&#x3a;" k="111" />
    <hkern u1="&#x422;" u2="&#x2f;" k="84" />
    <hkern u1="&#x422;" u2="&#x2e;" k="111" />
    <hkern u1="&#x422;" u2="&#x2d;" k="129" />
    <hkern u1="&#x422;" u2="&#x2c;" k="111" />
    <hkern u1="&#x423;" u2="&#x459;" k="60" />
    <hkern u1="&#x423;" u2="&#x44f;" k="55" />
    <hkern u1="&#x423;" u2="&#x44e;" k="37" />
    <hkern u1="&#x423;" u2="&#x44d;" k="55" />
    <hkern u1="&#x423;" u2="&#x449;" k="37" />
    <hkern u1="&#x423;" u2="&#x448;" k="37" />
    <hkern u1="&#x423;" u2="&#x447;" k="37" />
    <hkern u1="&#x423;" u2="&#x446;" k="37" />
    <hkern u1="&#x423;" u2="&#x445;" k="37" />
    <hkern u1="&#x423;" u2="&#x444;" k="55" />
    <hkern u1="&#x423;" u2="&#x442;" k="37" />
    <hkern u1="&#x423;" u2="&#x441;" k="55" />
    <hkern u1="&#x423;" u2="&#x440;" k="37" />
    <hkern u1="&#x423;" u2="&#x43f;" k="37" />
    <hkern u1="&#x423;" u2="&#x43e;" k="55" />
    <hkern u1="&#x423;" u2="&#x43d;" k="37" />
    <hkern u1="&#x423;" u2="&#x43c;" k="37" />
    <hkern u1="&#x423;" u2="&#x43b;" k="60" />
    <hkern u1="&#x423;" u2="&#x43a;" k="37" />
    <hkern u1="&#x423;" u2="&#x439;" k="37" />
    <hkern u1="&#x423;" u2="&#x438;" k="37" />
    <hkern u1="&#x423;" u2="&#x437;" k="55" />
    <hkern u1="&#x423;" u2="&#x436;" k="37" />
    <hkern u1="&#x423;" u2="&#x435;" k="55" />
    <hkern u1="&#x423;" u2="&#x434;" k="60" />
    <hkern u1="&#x423;" u2="&#x433;" k="37" />
    <hkern u1="&#x423;" u2="&#x432;" k="37" />
    <hkern u1="&#x423;" u2="&#x431;" k="55" />
    <hkern u1="&#x423;" u2="&#x430;" k="55" />
    <hkern u1="&#x423;" u2="&#x424;" k="18" />
    <hkern u1="&#x423;" u2="&#x421;" k="18" />
    <hkern u1="&#x423;" u2="&#x41e;" k="18" />
    <hkern u1="&#x423;" u2="&#x41b;" k="18" />
    <hkern u1="&#x423;" u2="&#x417;" k="18" />
    <hkern u1="&#x423;" u2="&#x414;" k="43" />
    <hkern u1="&#x423;" u2="&#x410;" k="77" />
    <hkern u1="&#x423;" u2="&#x409;" k="18" />
    <hkern u1="&#x423;" u2="&#x408;" k="88" />
    <hkern u1="&#x423;" u2="&#x3b;" k="46" />
    <hkern u1="&#x423;" u2="&#x3a;" k="46" />
    <hkern u1="&#x423;" u2="&#x2f;" k="91" />
    <hkern u1="&#x423;" u2="&#x2e;" k="129" />
    <hkern u1="&#x423;" u2="&#x2d;" k="48" />
    <hkern u1="&#x423;" u2="&#x2c;" k="129" />
    <hkern u1="&#x424;" u2="&#x422;" k="18" />
    <hkern u1="&#x424;" u2="&#x410;" k="18" />
    <hkern u1="&#x42a;" u2="&#x201d;" k="85" />
    <hkern u1="&#x42a;" u2="&#x2019;" k="85" />
    <hkern u1="&#x42c;" u2="&#x201d;" k="85" />
    <hkern u1="&#x42c;" u2="&#x2019;" k="85" />
    <hkern u1="&#x42c;" u2="&#x427;" k="66" />
    <hkern u1="&#x42c;" u2="&#x423;" k="46" />
    <hkern u1="&#x42c;" u2="&#x422;" k="95" />
    <hkern u1="&#x42d;" u2="&#x425;" k="18" />
    <hkern u1="&#x42d;" u2="&#x422;" k="18" />
    <hkern u1="&#x42d;" u2="&#x416;" k="18" />
    <hkern u1="&#x42e;" u2="&#x425;" k="18" />
    <hkern u1="&#x42e;" u2="&#x422;" k="18" />
    <hkern u1="&#x42e;" u2="&#x416;" k="18" />
    <hkern u1="&#x431;" u2="&#x445;" k="18" />
    <hkern u1="&#x431;" u2="&#x443;" k="12" />
    <hkern u1="&#x431;" u2="&#x442;" k="18" />
    <hkern u1="&#x431;" u2="&#x43b;" k="24" />
    <hkern u1="&#x431;" u2="&#x436;" k="18" />
    <hkern u1="&#x432;" u2="&#x43b;" k="18" />
    <hkern u1="&#x433;" u2="&#x441;" k="24" />
    <hkern u1="&#x433;" u2="&#x43e;" k="24" />
    <hkern u1="&#x433;" u2="&#x43b;" k="63" />
    <hkern u1="&#x433;" u2="&#x435;" k="24" />
    <hkern u1="&#x433;" u2="&#x434;" k="35" />
    <hkern u1="&#x433;" u2="&#x430;" k="24" />
    <hkern u1="&#x433;" u2="&#x2f;" k="68" />
    <hkern u1="&#x433;" u2="&#x2e;" k="132" />
    <hkern u1="&#x433;" u2="&#x2d;" k="88" />
    <hkern u1="&#x433;" u2="&#x2c;" k="132" />
    <hkern u1="&#x435;" u2="&#x459;" k="18" />
    <hkern u1="&#x435;" u2="&#x445;" k="18" />
    <hkern u1="&#x435;" u2="&#x443;" k="12" />
    <hkern u1="&#x435;" u2="&#x442;" k="18" />
    <hkern u1="&#x435;" u2="&#x43b;" k="18" />
    <hkern u1="&#x435;" u2="&#x436;" k="18" />
    <hkern u1="&#x435;" u2="&#x434;" k="18" />
    <hkern u1="&#x436;" u2="&#x44d;" k="18" />
    <hkern u1="&#x436;" u2="&#x441;" k="18" />
    <hkern u1="&#x436;" u2="&#x43e;" k="18" />
    <hkern u1="&#x436;" u2="&#x435;" k="18" />
    <hkern u1="&#x437;" u2="&#x43b;" k="18" />
    <hkern u1="&#x43e;" u2="&#x459;" k="18" />
    <hkern u1="&#x43e;" u2="&#x445;" k="18" />
    <hkern u1="&#x43e;" u2="&#x443;" k="12" />
    <hkern u1="&#x43e;" u2="&#x442;" k="18" />
    <hkern u1="&#x43e;" u2="&#x43b;" k="24" />
    <hkern u1="&#x43e;" u2="&#x436;" k="18" />
    <hkern u1="&#x43e;" u2="&#x434;" k="18" />
    <hkern u1="&#x440;" u2="&#x445;" k="18" />
    <hkern u1="&#x440;" u2="&#x443;" k="12" />
    <hkern u1="&#x440;" u2="&#x442;" k="18" />
    <hkern u1="&#x440;" u2="&#x43b;" k="32" />
    <hkern u1="&#x440;" u2="&#x436;" k="18" />
    <hkern u1="&#x440;" u2="&#x434;" k="18" />
    <hkern u1="&#x441;" u2="&#x445;" k="18" />
    <hkern u1="&#x441;" u2="&#x443;" k="12" />
    <hkern u1="&#x441;" u2="&#x43b;" k="18" />
    <hkern u1="&#x441;" u2="&#x436;" k="18" />
    <hkern u1="&#x441;" u2="&#x434;" k="18" />
    <hkern u1="&#x442;" u2="&#x44d;" k="18" />
    <hkern u1="&#x442;" u2="&#x441;" k="18" />
    <hkern u1="&#x442;" u2="&#x43e;" k="18" />
    <hkern u1="&#x442;" u2="&#x43b;" k="49" />
    <hkern u1="&#x442;" u2="&#x435;" k="18" />
    <hkern u1="&#x442;" u2="&#x430;" k="18" />
    <hkern u1="&#x442;" u2="&#x2e;" k="98" />
    <hkern u1="&#x442;" u2="&#x2d;" k="49" />
    <hkern u1="&#x442;" u2="&#x2c;" k="98" />
    <hkern u1="&#x443;" u2="&#x459;" k="26" />
    <hkern u1="&#x443;" u2="&#x44d;" k="12" />
    <hkern u1="&#x443;" u2="&#x444;" k="12" />
    <hkern u1="&#x443;" u2="&#x441;" k="12" />
    <hkern u1="&#x443;" u2="&#x43e;" k="12" />
    <hkern u1="&#x443;" u2="&#x43b;" k="42" />
    <hkern u1="&#x443;" u2="&#x435;" k="12" />
    <hkern u1="&#x443;" u2="&#x434;" k="18" />
    <hkern u1="&#x443;" u2="&#x430;" k="12" />
    <hkern u1="&#x443;" u2="&#x2e;" k="74" />
    <hkern u1="&#x443;" u2="&#x2c;" k="74" />
    <hkern u1="&#x444;" u2="&#x443;" k="12" />
    <hkern u1="&#x444;" u2="&#x442;" k="18" />
    <hkern u1="&#x444;" u2="&#x43b;" k="24" />
    <hkern u1="&#x445;" u2="&#x44d;" k="18" />
    <hkern u1="&#x445;" u2="&#x441;" k="18" />
    <hkern u1="&#x445;" u2="&#x43e;" k="18" />
    <hkern u1="&#x445;" u2="&#x435;" k="18" />
    <hkern u1="&#x44c;" u2="&#x201d;" k="84" />
    <hkern u1="&#x44c;" u2="&#x2019;" k="84" />
    <hkern u1="&#x44c;" u2="&#x447;" k="47" />
    <hkern u1="&#x44c;" u2="&#x442;" k="57" />
    <hkern u1="&#x44d;" u2="&#x445;" k="18" />
    <hkern u1="&#x44d;" u2="&#x443;" k="12" />
    <hkern u1="&#x44d;" u2="&#x442;" k="18" />
    <hkern u1="&#x44d;" u2="&#x43b;" k="32" />
    <hkern u1="&#x44d;" u2="&#x436;" k="18" />
    <hkern u1="&#x44d;" u2="&#x434;" k="18" />
    <hkern u1="&#x44e;" u2="&#x445;" k="18" />
    <hkern u1="&#x44e;" u2="&#x442;" k="18" />
    <hkern u1="&#x44e;" u2="&#x43b;" k="32" />
    <hkern u1="&#x44e;" u2="&#x436;" k="18" />
    <hkern u1="&#x44e;" u2="&#x434;" k="18" />
    <hkern u1="&#x452;" u2="&#x443;" k="36" />
    <hkern u1="&#x459;" u2="&#x201d;" k="84" />
    <hkern u1="&#x459;" u2="&#x2019;" k="84" />
    <hkern u1="&#x459;" u2="&#x443;" k="27" />
    <hkern u1="&#x459;" u2="&#x442;" k="57" />
    <hkern u1="&#x45a;" u2="&#x201d;" k="84" />
    <hkern u1="&#x45a;" u2="&#x2019;" k="84" />
    <hkern u1="&#x45a;" u2="&#x443;" k="27" />
    <hkern u1="&#x45a;" u2="&#x442;" k="57" />
    <hkern u1="&#x45b;" u2="&#x443;" k="36" />
    <hkern u1="&#x490;" u2="&#x44f;" k="157" />
    <hkern u1="&#x490;" u2="&#x44d;" k="157" />
    <hkern u1="&#x490;" u2="&#x443;" k="137" />
    <hkern u1="&#x490;" u2="&#x43e;" k="157" />
    <hkern u1="&#x490;" u2="&#x435;" k="157" />
    <hkern u1="&#x490;" u2="&#x430;" k="157" />
    <hkern u1="&#x490;" u2="&#x41b;" k="46" />
    <hkern u1="&#x490;" u2="&#x414;" k="53" />
    <hkern u1="&#x490;" u2="&#x410;" k="111" />
    <hkern u1="&#x490;" u2="&#x3b;" k="123" />
    <hkern u1="&#x490;" u2="&#x3a;" k="123" />
    <hkern u1="&#x490;" u2="&#x2e;" k="142" />
    <hkern u1="&#x491;" u2="&#x441;" k="24" />
    <hkern u1="&#x491;" u2="&#x43e;" k="24" />
    <hkern u1="&#x491;" u2="&#x435;" k="24" />
    <hkern u1="&#x491;" u2="&#x430;" k="24" />
    <hkern u1="&#x2018;" u2="&#x2018;" k="95" />
    <hkern u1="&#x2018;" u2="&#x459;" k="46" />
    <hkern u1="&#x2018;" u2="&#x43b;" k="46" />
    <hkern u1="&#x2018;" u2="&#x434;" k="46" />
    <hkern u1="&#x2018;" u2="&#x41b;" k="57" />
    <hkern u1="&#x2018;" u2="&#x414;" k="57" />
    <hkern u1="&#x2018;" u2="&#x410;" k="74" />
    <hkern u1="&#x2018;" u2="&#x409;" k="57" />
    <hkern u1="&#x2019;" u2="&#x2019;" k="95" />
    <hkern u1="&#x2019;" u2="t" k="18" />
    <hkern u1="&#x2019;" u2="s" k="74" />
    <hkern u1="&#x201c;" u2="&#x459;" k="46" />
    <hkern u1="&#x201c;" u2="&#x43b;" k="46" />
    <hkern u1="&#x201c;" u2="&#x434;" k="46" />
    <hkern u1="&#x201c;" u2="&#x41b;" k="57" />
    <hkern u1="&#x201c;" u2="&#x414;" k="57" />
    <hkern u1="&#x201c;" u2="&#x410;" k="74" />
    <hkern u1="&#x201c;" u2="&#x409;" k="57" />
  </font>
</defs></svg>
